New Data/Spectrum blocked (widest)/A0036CH1.CSV

Memory Length,4000,
Trigger Level,7.40000e+02,
Source,CH1,
Probe,1.0X,
Vertical Units,V,
Vertical Scale,5.00000e-02,
Vertical Position,-5.20000e-02,
Horizontal Units,S,
Horizontal Scale,5.00000e-04,
Horizontal Position,6.0000000e-05,
Horizontal Mode,Main,
Sampling Period,2.00000e-06,
Firmware,V1.14,
Time, ,
Mode,Detail,
Waveform Data,
-3.940000e-3,1.00e-2,
-3.938000e-3,1.00e-2,
-3.936000e-3,1.00e-2,
-3.934000e-3,1.00e-2,
-3.932000e-3,1.00e-2,
-3.930000e-3,1.20e-2,
-3.928000e-3,1.20e-2,
-3.926000e-3,1.60e-2,
-3.924000e-3,1.60e-2,
-3.922000e-3,1.80e-2,
-3.920000e-3,1.80e-2,
-3.918000e-3,2.00e-2,
-3.916000e-3,2.00e-2,
-3.914000e-3,2.20e-2,
-3.912000e-3,2.20e-2,
-3.910000e-3,2.20e-2,
-3.908000e-3,2.20e-2,
-3.906000e-3,2.60e-2,
-3.904000e-3,2.60e-2,
-3.902000e-3,2.60e-2,
-3.900000e-3,2.60e-2,
-3.898000e-3,3.00e-2,
-3.896000e-3,3.00e-2,
-3.894000e-3,3.20e-2,
-3.892000e-3,3.20e-2,
-3.890000e-3,3.60e-2,
-3.888000e-3,3.60e-2,
-3.886000e-3,3.80e-2,
-3.884000e-3,3.80e-2,
-3.882000e-3,4.00e-2,
-3.880000e-3,4.00e-2,
-3.878000e-3,4.40e-2,
-3.876000e-3,4.40e-2,
-3.874000e-3,4.60e-2,
-3.872000e-3,4.60e-2,
-3.870000e-3,5.00e-2,
-3.868000e-3,5.00e-2,
-3.866000e-3,5.20e-2,
-3.864000e-3,5.20e-2,
-3.862000e-3,5.40e-2,
-3.860000e-3,5.40e-2,
-3.858000e-3,5.80e-2,
-3.856000e-3,5.80e-2,
-3.854000e-3,5.80e-2,
-3.852000e-3,5.80e-2,
-3.850000e-3,6.40e-2,
-3.848000e-3,6.40e-2,
-3.846000e-3,6.60e-2,
-3.844000e-3,6.60e-2,
-3.842000e-3,7.20e-2,
-3.840000e-3,7.20e-2,
-3.838000e-3,7.40e-2,
-3.836000e-3,7.40e-2,
-3.834000e-3,7.40e-2,
-3.832000e-3,7.40e-2,
-3.830000e-3,8.00e-2,
-3.828000e-3,8.00e-2,
-3.826000e-3,8.20e-2,
-3.824000e-3,8.20e-2,
-3.822000e-3,8.40e-2,
-3.820000e-3,8.40e-2,
-3.818000e-3,9.00e-2,
-3.816000e-3,9.00e-2,
-3.814000e-3,9.20e-2,
-3.812000e-3,9.20e-2,
-3.810000e-3,9.60e-2,
-3.808000e-3,9.60e-2,
-3.806000e-3,9.80e-2,
-3.804000e-3,9.80e-2,
-3.802000e-3,9.80e-2,
-3.800000e-3,9.80e-2,
-3.798000e-3,1.06e-1,
-3.796000e-3,1.06e-1,
-3.794000e-3,1.08e-1,
-3.792000e-3,1.08e-1,
-3.790000e-3,1.10e-1,
-3.788000e-3,1.10e-1,
-3.786000e-3,1.12e-1,
-3.784000e-3,1.12e-1,
-3.782000e-3,1.16e-1,
-3.780000e-3,1.16e-1,
-3.778000e-3,1.18e-1,
-3.776000e-3,1.18e-1,
-3.774000e-3,1.22e-1,
-3.772000e-3,1.22e-1,
-3.770000e-3,1.24e-1,
-3.768000e-3,1.24e-1,
-3.766000e-3,1.24e-1,
-3.764000e-3,1.24e-1,
-3.762000e-3,1.26e-1,
-3.760000e-3,1.26e-1,
-3.758000e-3,1.28e-1,
-3.756000e-3,1.28e-1,
-3.754000e-3,1.32e-1,
-3.752000e-3,1.32e-1,
-3.750000e-3,1.32e-1,
-3.748000e-3,1.32e-1,
-3.746000e-3,1.32e-1,
-3.744000e-3,1.32e-1,
-3.742000e-3,1.34e-1,
-3.740000e-3,1.34e-1,
-3.738000e-3,1.38e-1,
-3.736000e-3,1.38e-1,
-3.734000e-3,1.38e-1,
-3.732000e-3,1.38e-1,
-3.730000e-3,1.38e-1,
-3.728000e-3,1.38e-1,
-3.726000e-3,1.38e-1,
-3.724000e-3,1.38e-1,
-3.722000e-3,1.40e-1,
-3.720000e-3,1.40e-1,
-3.718000e-3,1.42e-1,
-3.716000e-3,1.42e-1,
-3.714000e-3,1.42e-1,
-3.712000e-3,1.42e-1,
-3.710000e-3,1.40e-1,
-3.708000e-3,1.40e-1,
-3.706000e-3,1.40e-1,
-3.704000e-3,1.40e-1,
-3.702000e-3,1.42e-1,
-3.700000e-3,1.42e-1,
-3.698000e-3,1.42e-1,
-3.696000e-3,1.42e-1,
-3.694000e-3,1.40e-1,
-3.692000e-3,1.40e-1,
-3.690000e-3,1.42e-1,
-3.688000e-3,1.42e-1,
-3.686000e-3,1.40e-1,
-3.684000e-3,1.40e-1,
-3.682000e-3,1.36e-1,
-3.680000e-3,1.36e-1,
-3.678000e-3,1.40e-1,
-3.676000e-3,1.40e-1,
-3.674000e-3,1.36e-1,
-3.672000e-3,1.36e-1,
-3.670000e-3,1.34e-1,
-3.668000e-3,1.34e-1,
-3.666000e-3,1.36e-1,
-3.664000e-3,1.36e-1,
-3.662000e-3,1.32e-1,
-3.660000e-3,1.32e-1,
-3.658000e-3,1.30e-1,
-3.656000e-3,1.30e-1,
-3.654000e-3,1.30e-1,
-3.652000e-3,1.30e-1,
-3.650000e-3,1.28e-1,
-3.648000e-3,1.28e-1,
-3.646000e-3,1.28e-1,
-3.644000e-3,1.28e-1,
-3.642000e-3,1.26e-1,
-3.640000e-3,1.26e-1,
-3.638000e-3,1.20e-1,
-3.636000e-3,1.20e-1,
-3.634000e-3,1.18e-1,
-3.632000e-3,1.18e-1,
-3.630000e-3,1.14e-1,
-3.628000e-3,1.14e-1,
-3.626000e-3,1.12e-1,
-3.624000e-3,1.12e-1,
-3.622000e-3,1.08e-1,
-3.620000e-3,1.08e-1,
-3.618000e-3,1.06e-1,
-3.616000e-3,1.06e-1,
-3.614000e-3,1.04e-1,
-3.612000e-3,1.04e-1,
-3.610000e-3,1.00e-1,
-3.608000e-3,1.00e-1,
-3.606000e-3,9.80e-2,
-3.604000e-3,9.80e-2,
-3.602000e-3,9.60e-2,
-3.600000e-3,9.60e-2,
-3.598000e-3,9.20e-2,
-3.596000e-3,9.20e-2,
-3.594000e-3,8.80e-2,
-3.592000e-3,8.80e-2,
-3.590000e-3,8.80e-2,
-3.588000e-3,8.80e-2,
-3.586000e-3,8.40e-2,
-3.584000e-3,8.40e-2,
-3.582000e-3,8.00e-2,
-3.580000e-3,8.00e-2,
-3.578000e-3,7.60e-2,
-3.576000e-3,7.60e-2,
-3.574000e-3,7.40e-2,
-3.572000e-3,7.40e-2,
-3.570000e-3,7.00e-2,
-3.568000e-3,7.00e-2,
-3.566000e-3,6.60e-2,
-3.564000e-3,6.60e-2,
-3.562000e-3,6.20e-2,
-3.560000e-3,6.20e-2,
-3.558000e-3,6.00e-2,
-3.556000e-3,6.00e-2,
-3.554000e-3,5.60e-2,
-3.552000e-3,5.60e-2,
-3.550000e-3,5.40e-2,
-3.548000e-3,5.40e-2,
-3.546000e-3,4.80e-2,
-3.544000e-3,4.80e-2,
-3.542000e-3,5.00e-2,
-3.540000e-3,5.00e-2,
-3.538000e-3,4.80e-2,
-3.536000e-3,4.80e-2,
-3.534000e-3,4.20e-2,
-3.532000e-3,4.20e-2,
-3.530000e-3,4.00e-2,
-3.528000e-3,4.00e-2,
-3.526000e-3,3.60e-2,
-3.524000e-3,3.60e-2,
-3.522000e-3,3.60e-2,
-3.520000e-3,3.60e-2,
-3.518000e-3,3.20e-2,
-3.516000e-3,3.20e-2,
-3.514000e-3,2.80e-2,
-3.512000e-3,2.80e-2,
-3.510000e-3,2.60e-2,
-3.508000e-3,2.60e-2,
-3.506000e-3,2.40e-2,
-3.504000e-3,2.40e-2,
-3.502000e-3,2.40e-2,
-3.500000e-3,2.40e-2,
-3.498000e-3,2.00e-2,
-3.496000e-3,2.00e-2,
-3.494000e-3,1.60e-2,
-3.492000e-3,1.60e-2,
-3.490000e-3,1.80e-2,
-3.488000e-3,1.80e-2,
-3.486000e-3,1.40e-2,
-3.484000e-3,1.40e-2,
-3.482000e-3,1.40e-2,
-3.480000e-3,1.40e-2,
-3.478000e-3,1.20e-2,
-3.476000e-3,1.20e-2,
-3.474000e-3,1.00e-2,
-3.472000e-3,1.00e-2,
-3.470000e-3,6.00e-3,
-3.468000e-3,6.00e-3,
-3.466000e-3,4.00e-3,
-3.464000e-3,4.00e-3,
-3.462000e-3,4.00e-3,
-3.460000e-3,4.00e-3,
-3.458000e-3,2.00e-3,
-3.456000e-3,2.00e-3,
-3.454000e-3,2.00e-3,
-3.452000e-3,2.00e-3,
-3.450000e-3,0.00e+0,
-3.448000e-3,0.00e+0,
-3.446000e-3,0.00e+0,
-3.444000e-3,0.00e+0,
-3.442000e-3,-2.00e-3,
-3.440000e-3,-2.00e-3,
-3.438000e-3,0.00e+0,
-3.436000e-3,0.00e+0,
-3.434000e-3,-2.00e-3,
-3.432000e-3,-2.00e-3,
-3.430000e-3,-6.00e-3,
-3.428000e-3,-6.00e-3,
-3.426000e-3,-4.00e-3,
-3.424000e-3,-4.00e-3,
-3.422000e-3,-6.00e-3,
-3.420000e-3,-6.00e-3,
-3.418000e-3,-6.00e-3,
-3.416000e-3,-6.00e-3,
-3.414000e-3,-6.00e-3,
-3.412000e-3,-6.00e-3,
-3.410000e-3,-8.00e-3,
-3.408000e-3,-8.00e-3,
-3.406000e-3,-8.00e-3,
-3.404000e-3,-8.00e-3,
-3.402000e-3,-1.20e-2,
-3.400000e-3,-1.20e-2,
-3.398000e-3,-1.00e-2,
-3.396000e-3,-1.00e-2,
-3.394000e-3,-1.00e-2,
-3.392000e-3,-1.00e-2,
-3.390000e-3,-1.00e-2,
-3.388000e-3,-1.00e-2,
-3.386000e-3,-1.00e-2,
-3.384000e-3,-1.00e-2,
-3.382000e-3,-1.40e-2,
-3.380000e-3,-1.40e-2,
-3.378000e-3,-1.00e-2,
-3.376000e-3,-1.00e-2,
-3.374000e-3,-8.00e-3,
-3.372000e-3,-8.00e-3,
-3.370000e-3,-1.20e-2,
-3.368000e-3,-1.20e-2,
-3.366000e-3,-1.20e-2,
-3.364000e-3,-1.20e-2,
-3.362000e-3,-1.00e-2,
-3.360000e-3,-1.00e-2,
-3.358000e-3,-1.00e-2,
-3.356000e-3,-1.00e-2,
-3.354000e-3,-1.60e-2,
-3.352000e-3,-1.60e-2,
-3.350000e-3,-1.40e-2,
-3.348000e-3,-1.40e-2,
-3.346000e-3,-1.20e-2,
-3.344000e-3,-1.20e-2,
-3.342000e-3,-1.20e-2,
-3.340000e-3,-1.20e-2,
-3.338000e-3,-1.40e-2,
-3.336000e-3,-1.40e-2,
-3.334000e-3,-1.40e-2,
-3.332000e-3,-1.40e-2,
-3.330000e-3,-1.40e-2,
-3.328000e-3,-1.40e-2,
-3.326000e-3,-1.40e-2,
-3.324000e-3,-1.40e-2,
-3.322000e-3,-1.60e-2,
-3.320000e-3,-1.60e-2,
-3.318000e-3,-1.20e-2,
-3.316000e-3,-1.20e-2,
-3.314000e-3,-1.40e-2,
-3.312000e-3,-1.40e-2,
-3.310000e-3,-1.40e-2,
-3.308000e-3,-1.40e-2,
-3.306000e-3,-1.20e-2,
-3.304000e-3,-1.20e-2,
-3.302000e-3,-1.60e-2,
-3.300000e-3,-1.60e-2,
-3.298000e-3,-1.40e-2,
-3.296000e-3,-1.40e-2,
-3.294000e-3,-1.20e-2,
-3.292000e-3,-1.20e-2,
-3.290000e-3,-1.20e-2,
-3.288000e-3,-1.20e-2,
-3.286000e-3,-1.40e-2,
-3.284000e-3,-1.40e-2,
-3.282000e-3,-1.20e-2,
-3.280000e-3,-1.20e-2,
-3.278000e-3,-1.20e-2,
-3.276000e-3,-1.20e-2,
-3.274000e-3,-1.20e-2,
-3.272000e-3,-1.20e-2,
-3.270000e-3,-1.20e-2,
-3.268000e-3,-1.20e-2,
-3.266000e-3,-1.20e-2,
-3.264000e-3,-1.20e-2,
-3.262000e-3,-1.00e-2,
-3.260000e-3,-1.00e-2,
-3.258000e-3,-1.20e-2,
-3.256000e-3,-1.20e-2,
-3.254000e-3,-1.20e-2,
-3.252000e-3,-1.20e-2,
-3.250000e-3,-1.20e-2,
-3.248000e-3,-1.20e-2,
-3.246000e-3,-1.00e-2,
-3.244000e-3,-1.00e-2,
-3.242000e-3,-1.00e-2,
-3.240000e-3,-1.00e-2,
-3.238000e-3,-1.00e-2,
-3.236000e-3,-1.00e-2,
-3.234000e-3,-1.20e-2,
-3.232000e-3,-1.20e-2,
-3.230000e-3,-1.00e-2,
-3.228000e-3,-1.00e-2,
-3.226000e-3,-1.20e-2,
-3.224000e-3,-1.20e-2,
-3.222000e-3,-1.40e-2,
-3.220000e-3,-1.40e-2,
-3.218000e-3,-1.20e-2,
-3.216000e-3,-1.20e-2,
-3.214000e-3,-1.00e-2,
-3.212000e-3,-1.00e-2,
-3.210000e-3,-1.40e-2,
-3.208000e-3,-1.40e-2,
-3.206000e-3,-1.00e-2,
-3.204000e-3,-1.00e-2,
-3.202000e-3,-1.20e-2,
-3.200000e-3,-1.20e-2,
-3.198000e-3,-1.20e-2,
-3.196000e-3,-1.20e-2,
-3.194000e-3,-1.20e-2,
-3.192000e-3,-1.20e-2,
-3.190000e-3,-8.00e-3,
-3.188000e-3,-8.00e-3,
-3.186000e-3,-1.00e-2,
-3.184000e-3,-1.00e-2,
-3.182000e-3,-1.20e-2,
-3.180000e-3,-1.20e-2,
-3.178000e-3,-8.00e-3,
-3.176000e-3,-8.00e-3,
-3.174000e-3,-8.00e-3,
-3.172000e-3,-8.00e-3,
-3.170000e-3,-1.00e-2,
-3.168000e-3,-1.00e-2,
-3.166000e-3,-1.00e-2,
-3.164000e-3,-1.00e-2,
-3.162000e-3,-8.00e-3,
-3.160000e-3,-8.00e-3,
-3.158000e-3,-1.00e-2,
-3.156000e-3,-1.00e-2,
-3.154000e-3,-1.00e-2,
-3.152000e-3,-1.00e-2,
-3.150000e-3,-1.20e-2,
-3.148000e-3,-1.20e-2,
-3.146000e-3,-1.00e-2,
-3.144000e-3,-1.00e-2,
-3.142000e-3,-1.00e-2,
-3.140000e-3,-1.00e-2,
-3.138000e-3,-1.00e-2,
-3.136000e-3,-1.00e-2,
-3.134000e-3,-1.00e-2,
-3.132000e-3,-1.00e-2,
-3.130000e-3,-1.00e-2,
-3.128000e-3,-1.00e-2,
-3.126000e-3,-1.00e-2,
-3.124000e-3,-1.00e-2,
-3.122000e-3,-1.20e-2,
-3.120000e-3,-1.20e-2,
-3.118000e-3,-1.00e-2,
-3.116000e-3,-1.00e-2,
-3.114000e-3,-1.00e-2,
-3.112000e-3,-1.00e-2,
-3.110000e-3,-8.00e-3,
-3.108000e-3,-8.00e-3,
-3.106000e-3,-1.20e-2,
-3.104000e-3,-1.20e-2,
-3.102000e-3,-1.00e-2,
-3.100000e-3,-1.00e-2,
-3.098000e-3,-8.00e-3,
-3.096000e-3,-8.00e-3,
-3.094000e-3,-1.00e-2,
-3.092000e-3,-1.00e-2,
-3.090000e-3,-1.00e-2,
-3.088000e-3,-1.00e-2,
-3.086000e-3,-8.00e-3,
-3.084000e-3,-8.00e-3,
-3.082000e-3,-8.00e-3,
-3.080000e-3,-8.00e-3,
-3.078000e-3,-6.00e-3,
-3.076000e-3,-6.00e-3,
-3.074000e-3,-6.00e-3,
-3.072000e-3,-6.00e-3,
-3.070000e-3,-8.00e-3,
-3.068000e-3,-8.00e-3,
-3.066000e-3,-8.00e-3,
-3.064000e-3,-8.00e-3,
-3.062000e-3,-1.00e-2,
-3.060000e-3,-1.00e-2,
-3.058000e-3,-8.00e-3,
-3.056000e-3,-8.00e-3,
-3.054000e-3,-8.00e-3,
-3.052000e-3,-8.00e-3,
-3.050000e-3,-6.00e-3,
-3.048000e-3,-6.00e-3,
-3.046000e-3,-8.00e-3,
-3.044000e-3,-8.00e-3,
-3.042000e-3,-6.00e-3,
-3.040000e-3,-6.00e-3,
-3.038000e-3,-6.00e-3,
-3.036000e-3,-6.00e-3,
-3.034000e-3,-6.00e-3,
-3.032000e-3,-6.00e-3,
-3.030000e-3,-4.00e-3,
-3.028000e-3,-4.00e-3,
-3.026000e-3,-8.00e-3,
-3.024000e-3,-8.00e-3,
-3.022000e-3,-6.00e-3,
-3.020000e-3,-6.00e-3,
-3.018000e-3,-1.00e-2,
-3.016000e-3,-1.00e-2,
-3.014000e-3,-1.00e-2,
-3.012000e-3,-1.00e-2,
-3.010000e-3,-8.00e-3,
-3.008000e-3,-8.00e-3,
-3.006000e-3,-6.00e-3,
-3.004000e-3,-6.00e-3,
-3.002000e-3,-4.00e-3,
-3.000000e-3,-4.00e-3,
-2.998000e-3,-4.00e-3,
-2.996000e-3,-4.00e-3,
-2.994000e-3,-4.00e-3,
-2.992000e-3,-4.00e-3,
-2.990000e-3,-4.00e-3,
-2.988000e-3,-4.00e-3,
-2.986000e-3,-2.00e-3,
-2.984000e-3,-2.00e-3,
-2.982000e-3,-6.00e-3,
-2.980000e-3,-6.00e-3,
-2.978000e-3,-8.00e-3,
-2.976000e-3,-8.00e-3,
-2.974000e-3,-8.00e-3,
-2.972000e-3,-8.00e-3,
-2.970000e-3,-6.00e-3,
-2.968000e-3,-6.00e-3,
-2.966000e-3,-4.00e-3,
-2.964000e-3,-4.00e-3,
-2.962000e-3,-4.00e-3,
-2.960000e-3,-4.00e-3,
-2.958000e-3,-6.00e-3,
-2.956000e-3,-6.00e-3,
-2.954000e-3,-4.00e-3,
-2.952000e-3,-4.00e-3,
-2.950000e-3,-2.00e-3,
-2.948000e-3,-2.00e-3,
-2.946000e-3,-4.00e-3,
-2.944000e-3,-4.00e-3,
-2.942000e-3,-6.00e-3,
-2.940000e-3,-6.00e-3,
-2.938000e-3,-6.00e-3,
-2.936000e-3,-6.00e-3,
-2.934000e-3,-4.00e-3,
-2.932000e-3,-4.00e-3,
-2.930000e-3,-2.00e-3,
-2.928000e-3,-2.00e-3,
-2.926000e-3,-6.00e-3,
-2.924000e-3,-6.00e-3,
-2.922000e-3,-4.00e-3,
-2.920000e-3,-4.00e-3,
-2.918000e-3,-4.00e-3,
-2.916000e-3,-4.00e-3,
-2.914000e-3,-2.00e-3,
-2.912000e-3,-2.00e-3,
-2.910000e-3,-6.00e-3,
-2.908000e-3,-6.00e-3,
-2.906000e-3,-6.00e-3,
-2.904000e-3,-6.00e-3,
-2.902000e-3,-6.00e-3,
-2.900000e-3,-6.00e-3,
-2.898000e-3,-2.00e-3,
-2.896000e-3,-2.00e-3,
-2.894000e-3,-2.00e-3,
-2.892000e-3,-2.00e-3,
-2.890000e-3,-4.00e-3,
-2.888000e-3,-4.00e-3,
-2.886000e-3,-2.00e-3,
-2.884000e-3,-2.00e-3,
-2.882000e-3,-4.00e-3,
-2.880000e-3,-4.00e-3,
-2.878000e-3,-4.00e-3,
-2.876000e-3,-4.00e-3,
-2.874000e-3,-2.00e-3,
-2.872000e-3,-2.00e-3,
-2.870000e-3,-4.00e-3,
-2.868000e-3,-4.00e-3,
-2.866000e-3,-4.00e-3,
-2.864000e-3,-4.00e-3,
-2.862000e-3,-2.00e-3,
-2.860000e-3,-2.00e-3,
-2.858000e-3,-4.00e-3,
-2.856000e-3,-4.00e-3,
-2.854000e-3,-4.00e-3,
-2.852000e-3,-4.00e-3,
-2.850000e-3,-4.00e-3,
-2.848000e-3,-4.00e-3,
-2.846000e-3,-2.00e-3,
-2.844000e-3,-2.00e-3,
-2.842000e-3,0.00e+0,
-2.840000e-3,0.00e+0,
-2.838000e-3,-2.00e-3,
-2.836000e-3,-2.00e-3,
-2.834000e-3,0.00e+0,
-2.832000e-3,0.00e+0,
-2.830000e-3,-2.00e-3,
-2.828000e-3,-2.00e-3,
-2.826000e-3,0.00e+0,
-2.824000e-3,0.00e+0,
-2.822000e-3,0.00e+0,
-2.820000e-3,0.00e+0,
-2.818000e-3,-4.00e-3,
-2.816000e-3,-4.00e-3,
-2.814000e-3,0.00e+0,
-2.812000e-3,0.00e+0,
-2.810000e-3,-2.00e-3,
-2.808000e-3,-2.00e-3,
-2.806000e-3,0.00e+0,
-2.804000e-3,0.00e+0,
-2.802000e-3,0.00e+0,
-2.800000e-3,0.00e+0,
-2.798000e-3,0.00e+0,
-2.796000e-3,0.00e+0,
-2.794000e-3,0.00e+0,
-2.792000e-3,0.00e+0,
-2.790000e-3,0.00e+0,
-2.788000e-3,0.00e+0,
-2.786000e-3,0.00e+0,
-2.784000e-3,0.00e+0,
-2.782000e-3,0.00e+0,
-2.780000e-3,0.00e+0,
-2.778000e-3,-2.00e-3,
-2.776000e-3,-2.00e-3,
-2.774000e-3,0.00e+0,
-2.772000e-3,0.00e+0,
-2.770000e-3,0.00e+0,
-2.768000e-3,0.00e+0,
-2.766000e-3,2.00e-3,
-2.764000e-3,2.00e-3,
-2.762000e-3,2.00e-3,
-2.760000e-3,2.00e-3,
-2.758000e-3,0.00e+0,
-2.756000e-3,0.00e+0,
-2.754000e-3,0.00e+0,
-2.752000e-3,0.00e+0,
-2.750000e-3,0.00e+0,
-2.748000e-3,0.00e+0,
-2.746000e-3,2.00e-3,
-2.744000e-3,2.00e-3,
-2.742000e-3,2.00e-3,
-2.740000e-3,2.00e-3,
-2.738000e-3,4.00e-3,
-2.736000e-3,4.00e-3,
-2.734000e-3,4.00e-3,
-2.732000e-3,4.00e-3,
-2.730000e-3,2.00e-3,
-2.728000e-3,2.00e-3,
-2.726000e-3,4.00e-3,
-2.724000e-3,4.00e-3,
-2.722000e-3,2.00e-3,
-2.720000e-3,2.00e-3,
-2.718000e-3,6.00e-3,
-2.716000e-3,6.00e-3,
-2.714000e-3,4.00e-3,
-2.712000e-3,4.00e-3,
-2.710000e-3,4.00e-3,
-2.708000e-3,4.00e-3,
-2.706000e-3,4.00e-3,
-2.704000e-3,4.00e-3,
-2.702000e-3,6.00e-3,
-2.700000e-3,6.00e-3,
-2.698000e-3,4.00e-3,
-2.696000e-3,4.00e-3,
-2.694000e-3,8.00e-3,
-2.692000e-3,8.00e-3,
-2.690000e-3,6.00e-3,
-2.688000e-3,6.00e-3,
-2.686000e-3,6.00e-3,
-2.684000e-3,6.00e-3,
-2.682000e-3,8.00e-3,
-2.680000e-3,8.00e-3,
-2.678000e-3,8.00e-3,
-2.676000e-3,8.00e-3,
-2.674000e-3,1.00e-2,
-2.672000e-3,1.00e-2,
-2.670000e-3,1.00e-2,
-2.668000e-3,1.00e-2,
-2.666000e-3,1.20e-2,
-2.664000e-3,1.20e-2,
-2.662000e-3,1.40e-2,
-2.660000e-3,1.40e-2,
-2.658000e-3,1.20e-2,
-2.656000e-3,1.20e-2,
-2.654000e-3,1.20e-2,
-2.652000e-3,1.20e-2,
-2.650000e-3,1.40e-2,
-2.648000e-3,1.40e-2,
-2.646000e-3,1.20e-2,
-2.644000e-3,1.20e-2,
-2.642000e-3,1.60e-2,
-2.640000e-3,1.60e-2,
-2.638000e-3,1.80e-2,
-2.636000e-3,1.80e-2,
-2.634000e-3,2.00e-2,
-2.632000e-3,2.00e-2,
-2.630000e-3,1.80e-2,
-2.628000e-3,1.80e-2,
-2.626000e-3,1.80e-2,
-2.624000e-3,1.80e-2,
-2.622000e-3,2.20e-2,
-2.620000e-3,2.20e-2,
-2.618000e-3,2.20e-2,
-2.616000e-3,2.20e-2,
-2.614000e-3,2.20e-2,
-2.612000e-3,2.20e-2,
-2.610000e-3,2.40e-2,
-2.608000e-3,2.40e-2,
-2.606000e-3,2.60e-2,
-2.604000e-3,2.60e-2,
-2.602000e-3,2.60e-2,
-2.600000e-3,2.60e-2,
-2.598000e-3,2.40e-2,
-2.596000e-3,2.40e-2,
-2.594000e-3,2.60e-2,
-2.592000e-3,2.60e-2,
-2.590000e-3,2.60e-2,
-2.588000e-3,2.60e-2,
-2.586000e-3,3.00e-2,
-2.584000e-3,3.00e-2,
-2.582000e-3,3.00e-2,
-2.580000e-3,3.00e-2,
-2.578000e-3,3.20e-2,
-2.576000e-3,3.20e-2,
-2.574000e-3,3.40e-2,
-2.572000e-3,3.40e-2,
-2.570000e-3,3.20e-2,
-2.568000e-3,3.20e-2,
-2.566000e-3,3.60e-2,
-2.564000e-3,3.60e-2,
-2.562000e-3,3.80e-2,
-2.560000e-3,3.80e-2,
-2.558000e-3,3.80e-2,
-2.556000e-3,3.80e-2,
-2.554000e-3,3.80e-2,
-2.552000e-3,3.80e-2,
-2.550000e-3,4.00e-2,
-2.548000e-3,4.00e-2,
-2.546000e-3,4.00e-2,
-2.544000e-3,4.00e-2,
-2.542000e-3,4.20e-2,
-2.540000e-3,4.20e-2,
-2.538000e-3,4.20e-2,
-2.536000e-3,4.20e-2,
-2.534000e-3,4.20e-2,
-2.532000e-3,4.20e-2,
-2.530000e-3,4.40e-2,
-2.528000e-3,4.40e-2,
-2.526000e-3,4.60e-2,
-2.524000e-3,4.60e-2,
-2.522000e-3,4.60e-2,
-2.520000e-3,4.60e-2,
-2.518000e-3,4.80e-2,
-2.516000e-3,4.80e-2,
-2.514000e-3,4.80e-2,
-2.512000e-3,4.80e-2,
-2.510000e-3,5.00e-2,
-2.508000e-3,5.00e-2,
-2.506000e-3,5.00e-2,
-2.504000e-3,5.00e-2,
-2.502000e-3,5.20e-2,
-2.500000e-3,5.20e-2,
-2.498000e-3,5.00e-2,
-2.496000e-3,5.00e-2,
-2.494000e-3,5.20e-2,
-2.492000e-3,5.20e-2,
-2.490000e-3,5.00e-2,
-2.488000e-3,5.00e-2,
-2.486000e-3,5.20e-2,
-2.484000e-3,5.20e-2,
-2.482000e-3,5.20e-2,
-2.480000e-3,5.20e-2,
-2.478000e-3,5.20e-2,
-2.476000e-3,5.20e-2,
-2.474000e-3,5.60e-2,
-2.472000e-3,5.60e-2,
-2.470000e-3,5.40e-2,
-2.468000e-3,5.40e-2,
-2.466000e-3,5.60e-2,
-2.464000e-3,5.60e-2,
-2.462000e-3,5.20e-2,
-2.460000e-3,5.20e-2,
-2.458000e-3,5.40e-2,
-2.456000e-3,5.40e-2,
-2.454000e-3,5.60e-2,
-2.452000e-3,5.60e-2,
-2.450000e-3,5.60e-2,
-2.448000e-3,5.60e-2,
-2.446000e-3,5.40e-2,
-2.444000e-3,5.40e-2,
-2.442000e-3,5.60e-2,
-2.440000e-3,5.60e-2,
-2.438000e-3,5.40e-2,
-2.436000e-3,5.40e-2,
-2.434000e-3,5.60e-2,
-2.432000e-3,5.60e-2,
-2.430000e-3,5.40e-2,
-2.428000e-3,5.40e-2,
-2.426000e-3,5.60e-2,
-2.424000e-3,5.60e-2,
-2.422000e-3,5.40e-2,
-2.420000e-3,5.40e-2,
-2.418000e-3,5.60e-2,
-2.416000e-3,5.60e-2,
-2.414000e-3,5.60e-2,
-2.412000e-3,5.60e-2,
-2.410000e-3,5.40e-2,
-2.408000e-3,5.40e-2,
-2.406000e-3,5.20e-2,
-2.404000e-3,5.20e-2,
-2.402000e-3,5.40e-2,
-2.400000e-3,5.40e-2,
-2.398000e-3,5.00e-2,
-2.396000e-3,5.00e-2,
-2.394000e-3,5.00e-2,
-2.392000e-3,5.00e-2,
-2.390000e-3,5.00e-2,
-2.388000e-3,5.00e-2,
-2.386000e-3,5.00e-2,
-2.384000e-3,5.00e-2,
-2.382000e-3,5.20e-2,
-2.380000e-3,5.20e-2,
-2.378000e-3,5.00e-2,
-2.376000e-3,5.00e-2,
-2.374000e-3,4.80e-2,
-2.372000e-3,4.80e-2,
-2.370000e-3,5.00e-2,
-2.368000e-3,5.00e-2,
-2.366000e-3,4.60e-2,
-2.364000e-3,4.60e-2,
-2.362000e-3,4.60e-2,
-2.360000e-3,4.60e-2,
-2.358000e-3,4.60e-2,
-2.356000e-3,4.60e-2,
-2.354000e-3,4.60e-2,
-2.352000e-3,4.60e-2,
-2.350000e-3,4.60e-2,
-2.348000e-3,4.60e-2,
-2.346000e-3,4.60e-2,
-2.344000e-3,4.60e-2,
-2.342000e-3,4.00e-2,
-2.340000e-3,4.00e-2,
-2.338000e-3,4.20e-2,
-2.336000e-3,4.20e-2,
-2.334000e-3,4.00e-2,
-2.332000e-3,4.00e-2,
-2.330000e-3,4.00e-2,
-2.328000e-3,4.00e-2,
-2.326000e-3,3.80e-2,
-2.324000e-3,3.80e-2,
-2.322000e-3,3.60e-2,
-2.320000e-3,3.60e-2,
-2.318000e-3,3.40e-2,
-2.316000e-3,3.40e-2,
-2.314000e-3,3.60e-2,
-2.312000e-3,3.60e-2,
-2.310000e-3,3.20e-2,
-2.308000e-3,3.20e-2,
-2.306000e-3,3.20e-2,
-2.304000e-3,3.20e-2,
-2.302000e-3,3.20e-2,
-2.300000e-3,3.20e-2,
-2.298000e-3,3.00e-2,
-2.296000e-3,3.00e-2,
-2.294000e-3,3.00e-2,
-2.292000e-3,3.00e-2,
-2.290000e-3,3.00e-2,
-2.288000e-3,3.00e-2,
-2.286000e-3,3.00e-2,
-2.284000e-3,3.00e-2,
-2.282000e-3,2.80e-2,
-2.280000e-3,2.80e-2,
-2.278000e-3,2.60e-2,
-2.276000e-3,2.60e-2,
-2.274000e-3,2.60e-2,
-2.272000e-3,2.60e-2,
-2.270000e-3,2.60e-2,
-2.268000e-3,2.60e-2,
-2.266000e-3,2.40e-2,
-2.264000e-3,2.40e-2,
-2.262000e-3,2.20e-2,
-2.260000e-3,2.20e-2,
-2.258000e-3,2.00e-2,
-2.256000e-3,2.00e-2,
-2.254000e-3,2.20e-2,
-2.252000e-3,2.20e-2,
-2.250000e-3,2.00e-2,
-2.248000e-3,2.00e-2,
-2.246000e-3,2.00e-2,
-2.244000e-3,2.00e-2,
-2.242000e-3,1.60e-2,
-2.240000e-3,1.60e-2,
-2.238000e-3,1.80e-2,
-2.236000e-3,1.80e-2,
-2.234000e-3,1.80e-2,
-2.232000e-3,1.80e-2,
-2.230000e-3,1.60e-2,
-2.228000e-3,1.60e-2,
-2.226000e-3,1.60e-2,
-2.224000e-3,1.60e-2,
-2.222000e-3,1.40e-2,
-2.220000e-3,1.40e-2,
-2.218000e-3,1.20e-2,
-2.216000e-3,1.20e-2,
-2.214000e-3,1.40e-2,
-2.212000e-3,1.40e-2,
-2.210000e-3,1.20e-2,
-2.208000e-3,1.20e-2,
-2.206000e-3,1.40e-2,
-2.204000e-3,1.40e-2,
-2.202000e-3,1.40e-2,
-2.200000e-3,1.40e-2,
-2.198000e-3,1.40e-2,
-2.196000e-3,1.40e-2,
-2.194000e-3,1.40e-2,
-2.192000e-3,1.40e-2,
-2.190000e-3,1.00e-2,
-2.188000e-3,1.00e-2,
-2.186000e-3,1.20e-2,
-2.184000e-3,1.20e-2,
