New Data/Spectrum/A0031CH1.CSV

Memory Length,4000,
Trigger Level,7.40000e+02,
Source,CH1,
Probe,1.0X,
Vertical Units,V,
Vertical Scale,5.00000e-02,
Vertical Position,-5.20000e-02,
Horizontal Units,S,
Horizontal Scale,1.00000e-03,
Horizontal Position,-1.7200000e-03,
Horizontal Mode,Main,
Sampling Period,4.00000e-06,
Firmware,V1.14,
Time, ,
Mode,Detail,
Waveform Data,
-9.720000e-3,2.00e-2,
-9.716000e-3,2.00e-2,
-9.712000e-3,2.00e-2,
-9.708000e-3,1.60e-2,
-9.704000e-3,1.60e-2,
-9.700000e-3,1.80e-2,
-9.696000e-3,1.80e-2,
-9.692000e-3,1.80e-2,
-9.688000e-3,1.80e-2,
-9.684000e-3,1.80e-2,
-9.680000e-3,1.80e-2,
-9.676000e-3,1.80e-2,
-9.672000e-3,1.80e-2,
-9.668000e-3,1.80e-2,
-9.664000e-3,1.80e-2,
-9.660000e-3,2.00e-2,
-9.656000e-3,2.00e-2,
-9.652000e-3,2.20e-2,
-9.648000e-3,2.20e-2,
-9.644000e-3,2.20e-2,
-9.640000e-3,2.20e-2,
-9.636000e-3,2.60e-2,
-9.632000e-3,2.60e-2,
-9.628000e-3,2.80e-2,
-9.624000e-3,2.80e-2,
-9.620000e-3,3.00e-2,
-9.616000e-3,3.00e-2,
-9.612000e-3,3.60e-2,
-9.608000e-3,3.60e-2,
-9.604000e-3,3.80e-2,
-9.600000e-3,3.80e-2,
-9.596000e-3,4.20e-2,
-9.592000e-3,4.20e-2,
-9.588000e-3,4.60e-2,
-9.584000e-3,4.60e-2,
-9.580000e-3,4.80e-2,
-9.576000e-3,4.80e-2,
-9.572000e-3,5.00e-2,
-9.568000e-3,5.00e-2,
-9.564000e-3,4.60e-2,
-9.560000e-3,4.60e-2,
-9.556000e-3,4.60e-2,
-9.552000e-3,4.60e-2,
-9.548000e-3,5.00e-2,
-9.544000e-3,5.00e-2,
-9.540000e-3,5.00e-2,
-9.536000e-3,5.00e-2,
-9.532000e-3,5.00e-2,
-9.528000e-3,5.00e-2,
-9.524000e-3,5.00e-2,
-9.520000e-3,5.00e-2,
-9.516000e-3,5.20e-2,
-9.512000e-3,5.20e-2,
-9.508000e-3,4.80e-2,
-9.504000e-3,4.80e-2,
-9.500000e-3,4.20e-2,
-9.496000e-3,4.20e-2,
-9.492000e-3,4.20e-2,
-9.488000e-3,4.20e-2,
-9.484000e-3,3.40e-2,
-9.480000e-3,3.40e-2,
-9.476000e-3,3.40e-2,
-9.472000e-3,3.40e-2,
-9.468000e-3,2.80e-2,
-9.464000e-3,2.80e-2,
-9.460000e-3,2.80e-2,
-9.456000e-3,2.80e-2,
-9.452000e-3,2.20e-2,
-9.448000e-3,2.20e-2,
-9.444000e-3,1.80e-2,
-9.440000e-3,1.80e-2,
-9.436000e-3,1.60e-2,
-9.432000e-3,1.60e-2,
-9.428000e-3,1.40e-2,
-9.424000e-3,1.40e-2,
-9.420000e-3,1.40e-2,
-9.416000e-3,1.40e-2,
-9.412000e-3,1.00e-2,
-9.408000e-3,1.00e-2,
-9.404000e-3,6.00e-3,
-9.400000e-3,6.00e-3,
-9.396000e-3,6.00e-3,
-9.392000e-3,6.00e-3,
-9.388000e-3,6.00e-3,
-9.384000e-3,6.00e-3,
-9.380000e-3,1.00e-2,
-9.376000e-3,1.00e-2,
-9.372000e-3,6.00e-3,
-9.368000e-3,6.00e-3,
-9.364000e-3,4.00e-3,
-9.360000e-3,4.00e-3,
-9.356000e-3,6.00e-3,
-9.352000e-3,6.00e-3,
-9.348000e-3,4.00e-3,
-9.344000e-3,4.00e-3,
-9.340000e-3,2.00e-3,
-9.336000e-3,2.00e-3,
-9.332000e-3,4.00e-3,
-9.328000e-3,4.00e-3,
-9.324000e-3,2.00e-3,
-9.320000e-3,2.00e-3,
-9.316000e-3,4.00e-3,
-9.312000e-3,4.00e-3,
-9.308000e-3,4.00e-3,
-9.304000e-3,4.00e-3,
-9.300000e-3,4.00e-3,
-9.296000e-3,4.00e-3,
-9.292000e-3,0.00e+0,
-9.288000e-3,0.00e+0,
-9.284000e-3,2.00e-3,
-9.280000e-3,2.00e-3,
-9.276000e-3,0.00e+0,
-9.272000e-3,0.00e+0,
-9.268000e-3,-2.00e-3,
-9.264000e-3,-2.00e-3,
-9.260000e-3,2.00e-3,
-9.256000e-3,2.00e-3,
-9.252000e-3,0.00e+0,
-9.248000e-3,0.00e+0,
-9.244000e-3,-2.00e-3,
-9.240000e-3,-2.00e-3,
-9.236000e-3,-4.00e-3,
-9.232000e-3,-4.00e-3,
-9.228000e-3,-6.00e-3,
-9.224000e-3,-6.00e-3,
-9.220000e-3,-4.00e-3,
-9.216000e-3,-4.00e-3,
-9.212000e-3,-2.00e-3,
-9.208000e-3,-2.00e-3,
-9.204000e-3,-4.00e-3,
-9.200000e-3,-4.00e-3,
-9.196000e-3,-2.00e-3,
-9.192000e-3,-2.00e-3,
-9.188000e-3,-4.00e-3,
-9.184000e-3,-4.00e-3,
-9.180000e-3,-2.00e-3,
-9.176000e-3,-2.00e-3,
-9.172000e-3,-2.00e-3,
-9.168000e-3,-2.00e-3,
-9.164000e-3,-4.00e-3,
-9.160000e-3,-4.00e-3,
-9.156000e-3,2.00e-3,
-9.152000e-3,2.00e-3,
-9.148000e-3,2.00e-3,
-9.144000e-3,2.00e-3,
-9.140000e-3,4.00e-3,
-9.136000e-3,4.00e-3,
-9.132000e-3,2.00e-3,
-9.128000e-3,2.00e-3,
-9.124000e-3,4.00e-3,
-9.120000e-3,4.00e-3,
-9.116000e-3,8.00e-3,
-9.112000e-3,8.00e-3,
-9.108000e-3,1.40e-2,
-9.104000e-3,1.40e-2,
-9.100000e-3,2.20e-2,
-9.096000e-3,2.20e-2,
-9.092000e-3,3.00e-2,
-9.088000e-3,3.00e-2,
-9.084000e-3,3.80e-2,
-9.080000e-3,3.80e-2,
-9.076000e-3,4.60e-2,
-9.072000e-3,4.60e-2,
-9.068000e-3,6.60e-2,
-9.064000e-3,6.60e-2,
-9.060000e-3,7.20e-2,
-9.056000e-3,7.20e-2,
-9.052000e-3,8.20e-2,
-9.048000e-3,8.20e-2,
-9.044000e-3,9.60e-2,
-9.040000e-3,9.60e-2,
-9.036000e-3,1.02e-1,
-9.032000e-3,1.02e-1,
-9.028000e-3,9.80e-2,
-9.024000e-3,9.80e-2,
-9.020000e-3,9.20e-2,
-9.016000e-3,9.20e-2,
-9.012000e-3,9.80e-2,
-9.008000e-3,9.80e-2,
-9.004000e-3,9.80e-2,
-9.000000e-3,9.80e-2,
-8.996000e-3,1.08e-1,
-8.992000e-3,1.08e-1,
-8.988000e-3,1.06e-1,
-8.984000e-3,1.06e-1,
-8.980000e-3,1.04e-1,
-8.976000e-3,1.04e-1,
-8.972000e-3,9.80e-2,
-8.968000e-3,9.80e-2,
-8.964000e-3,9.00e-2,
-8.960000e-3,9.00e-2,
-8.956000e-3,8.20e-2,
-8.952000e-3,8.20e-2,
-8.948000e-3,7.00e-2,
-8.944000e-3,7.00e-2,
-8.940000e-3,5.80e-2,
-8.936000e-3,5.80e-2,
-8.932000e-3,5.00e-2,
-8.928000e-3,5.00e-2,
-8.924000e-3,3.20e-2,
-8.920000e-3,3.20e-2,
-8.916000e-3,2.60e-2,
-8.912000e-3,2.60e-2,
-8.908000e-3,1.80e-2,
-8.904000e-3,1.80e-2,
-8.900000e-3,1.00e-2,
-8.896000e-3,1.00e-2,
-8.892000e-3,6.00e-3,
-8.888000e-3,6.00e-3,
-8.884000e-3,0.00e+0,
-8.880000e-3,0.00e+0,
-8.876000e-3,-6.00e-3,
-8.872000e-3,-6.00e-3,
-8.868000e-3,-1.20e-2,
-8.864000e-3,-1.20e-2,
-8.860000e-3,-1.20e-2,
-8.856000e-3,-1.20e-2,
-8.852000e-3,-1.20e-2,
-8.848000e-3,-1.20e-2,
-8.844000e-3,-1.60e-2,
-8.840000e-3,-1.60e-2,
-8.836000e-3,-1.80e-2,
-8.832000e-3,-1.80e-2,
-8.828000e-3,-1.80e-2,
-8.824000e-3,-1.80e-2,
-8.820000e-3,-1.80e-2,
-8.816000e-3,-1.80e-2,
-8.812000e-3,-2.00e-2,
-8.808000e-3,-2.00e-2,
-8.804000e-3,-2.00e-2,
-8.800000e-3,-2.00e-2,
-8.796000e-3,-2.00e-2,
-8.792000e-3,-2.00e-2,
-8.788000e-3,-2.00e-2,
-8.784000e-3,-2.00e-2,
-8.780000e-3,-2.00e-2,
-8.776000e-3,-2.00e-2,
-8.772000e-3,-2.00e-2,
-8.768000e-3,-2.00e-2,
-8.764000e-3,-2.20e-2,
-8.760000e-3,-2.20e-2,
-8.756000e-3,-2.20e-2,
-8.752000e-3,-2.20e-2,
-8.748000e-3,-2.20e-2,
-8.744000e-3,-2.20e-2,
-8.740000e-3,-2.00e-2,
-8.736000e-3,-2.00e-2,
-8.732000e-3,-2.20e-2,
-8.728000e-3,-2.20e-2,
-8.724000e-3,-2.60e-2,
-8.720000e-3,-2.60e-2,
-8.716000e-3,-2.20e-2,
-8.712000e-3,-2.20e-2,
-8.708000e-3,-2.20e-2,
-8.704000e-3,-2.20e-2,
-8.700000e-3,-2.60e-2,
-8.696000e-3,-2.60e-2,
-8.692000e-3,-2.20e-2,
-8.688000e-3,-2.20e-2,
-8.684000e-3,-2.40e-2,
-8.680000e-3,-2.40e-2,
-8.676000e-3,-2.20e-2,
-8.672000e-3,-2.20e-2,
-8.668000e-3,-2.60e-2,
-8.664000e-3,-2.60e-2,
-8.660000e-3,-2.20e-2,
-8.656000e-3,-2.20e-2,
-8.652000e-3,-2.20e-2,
-8.648000e-3,-2.20e-2,
-8.644000e-3,-2.60e-2,
-8.640000e-3,-2.60e-2,
-8.636000e-3,-2.60e-2,
-8.632000e-3,-2.60e-2,
-8.628000e-3,-2.80e-2,
-8.624000e-3,-2.80e-2,
-8.620000e-3,-2.60e-2,
-8.616000e-3,-2.60e-2,
-8.612000e-3,-3.00e-2,
-8.608000e-3,-3.00e-2,
-8.604000e-3,-2.60e-2,
-8.600000e-3,-2.60e-2,
-8.596000e-3,-2.60e-2,
-8.592000e-3,-2.60e-2,
-8.588000e-3,-2.60e-2,
-8.584000e-3,-2.60e-2,
-8.580000e-3,-2.80e-2,
-8.576000e-3,-2.80e-2,
-8.572000e-3,-2.60e-2,
-8.568000e-3,-2.60e-2,
-8.564000e-3,-2.20e-2,
-8.560000e-3,-2.20e-2,
-8.556000e-3,-2.60e-2,
-8.552000e-3,-2.60e-2,
-8.548000e-3,-2.40e-2,
-8.544000e-3,-2.40e-2,
-8.540000e-3,-1.80e-2,
-8.536000e-3,-1.80e-2,
-8.532000e-3,-1.80e-2,
-8.528000e-3,-1.80e-2,
-8.524000e-3,-1.60e-2,
-8.520000e-3,-1.60e-2,
-8.516000e-3,-8.00e-3,
-8.512000e-3,-8.00e-3,
-8.508000e-3,-2.00e-3,
-8.504000e-3,-2.00e-3,
-8.500000e-3,4.00e-3,
-8.496000e-3,4.00e-3,
-8.492000e-3,2.00e-2,
-8.488000e-3,2.00e-2,
-8.484000e-3,3.40e-2,
-8.480000e-3,3.40e-2,
-8.476000e-3,4.40e-2,
-8.472000e-3,7.20e-2,
-8.468000e-3,7.20e-2,
-8.464000e-3,7.20e-2,
-8.460000e-3,8.80e-2,
-8.456000e-3,8.80e-2,
-8.452000e-3,1.06e-1,
-8.448000e-3,1.06e-1,
-8.444000e-3,1.16e-1,
-8.440000e-3,1.40e-1,
-8.436000e-3,1.36e-1,
-8.432000e-3,1.36e-1,
-8.428000e-3,1.40e-1,
-8.424000e-3,1.40e-1,
-8.420000e-3,1.50e-1,
-8.416000e-3,1.50e-1,
-8.412000e-3,1.38e-1,
-8.408000e-3,1.38e-1,
-8.404000e-3,1.32e-1,
-8.400000e-3,1.32e-1,
-8.396000e-3,1.32e-1,
-8.392000e-3,1.32e-1,
-8.388000e-3,1.32e-1,
-8.384000e-3,1.32e-1,
-8.380000e-3,1.32e-1,
-8.376000e-3,1.32e-1,
-8.372000e-3,1.30e-1,
-8.368000e-3,1.30e-1,
-8.364000e-3,1.16e-1,
-8.360000e-3,1.16e-1,
-8.356000e-3,1.06e-1,
-8.352000e-3,1.06e-1,
-8.348000e-3,9.40e-2,
-8.344000e-3,9.40e-2,
-8.340000e-3,7.80e-2,
-8.336000e-3,7.80e-2,
-8.332000e-3,6.00e-2,
-8.328000e-3,6.00e-2,
-8.324000e-3,4.20e-2,
-8.320000e-3,4.20e-2,
-8.316000e-3,3.40e-2,
-8.312000e-3,3.40e-2,
-8.308000e-3,2.00e-2,
-8.304000e-3,2.00e-2,
-8.300000e-3,6.00e-3,
-8.296000e-3,6.00e-3,
-8.292000e-3,-4.00e-3,
-8.288000e-3,-4.00e-3,
-8.284000e-3,-6.00e-3,
-8.280000e-3,-6.00e-3,
-8.276000e-3,-1.00e-2,
-8.272000e-3,-1.00e-2,
-8.268000e-3,-1.40e-2,
-8.264000e-3,-1.40e-2,
-8.260000e-3,-1.20e-2,
-8.256000e-3,-1.20e-2,
-8.252000e-3,-1.20e-2,
-8.248000e-3,-1.20e-2,
-8.244000e-3,-6.00e-3,
-8.240000e-3,-6.00e-3,
-8.236000e-3,0.00e+0,
-8.232000e-3,0.00e+0,
-8.228000e-3,6.00e-3,
-8.224000e-3,6.00e-3,
-8.220000e-3,1.20e-2,
-8.216000e-3,1.20e-2,
-8.212000e-3,2.00e-2,
-8.208000e-3,2.00e-2,
-8.204000e-3,2.80e-2,
-8.200000e-3,2.80e-2,
-8.196000e-3,3.00e-2,
-8.192000e-3,3.00e-2,
-8.188000e-3,3.80e-2,
-8.184000e-3,3.80e-2,
-8.180000e-3,4.40e-2,
-8.176000e-3,4.40e-2,
-8.172000e-3,4.20e-2,
-8.168000e-3,4.20e-2,
-8.164000e-3,3.40e-2,
-8.160000e-3,3.40e-2,
-8.156000e-3,3.00e-2,
-8.152000e-3,3.00e-2,
-8.148000e-3,2.60e-2,
-8.144000e-3,2.60e-2,
-8.140000e-3,2.40e-2,
-8.136000e-3,2.40e-2,
-8.132000e-3,2.00e-2,
-8.128000e-3,2.00e-2,
-8.124000e-3,1.00e-2,
-8.120000e-3,1.00e-2,
-8.116000e-3,1.00e-2,
-8.112000e-3,1.00e-2,
-8.108000e-3,4.00e-3,
-8.104000e-3,4.00e-3,
-8.100000e-3,-4.00e-3,
-8.096000e-3,-4.00e-3,
-8.092000e-3,-6.00e-3,
-8.088000e-3,-6.00e-3,
-8.084000e-3,-1.20e-2,
-8.080000e-3,-1.20e-2,
-8.076000e-3,-2.20e-2,
-8.072000e-3,-2.20e-2,
-8.068000e-3,-2.40e-2,
-8.064000e-3,-2.40e-2,
-8.060000e-3,-3.00e-2,
-8.056000e-3,-3.00e-2,
-8.052000e-3,-3.20e-2,
-8.048000e-3,-3.20e-2,
-8.044000e-3,-3.40e-2,
-8.040000e-3,-3.40e-2,
-8.036000e-3,-3.80e-2,
-8.032000e-3,-3.80e-2,
-8.028000e-3,-4.20e-2,
-8.024000e-3,-4.20e-2,
-8.020000e-3,-4.40e-2,
-8.016000e-3,-4.40e-2,
-8.012000e-3,-5.20e-2,
-8.008000e-3,-5.20e-2,
-8.004000e-3,-5.00e-2,
-8.000000e-3,-5.00e-2,
-7.996000e-3,-4.80e-2,
-7.992000e-3,-4.80e-2,
-7.988000e-3,-5.20e-2,
-7.984000e-3,-5.20e-2,
-7.980000e-3,-5.20e-2,
-7.976000e-3,-5.20e-2,
-7.972000e-3,-5.20e-2,
-7.968000e-3,-5.20e-2,
-7.964000e-3,-5.60e-2,
-7.960000e-3,-5.60e-2,
-7.956000e-3,-5.40e-2,
-7.952000e-3,-5.40e-2,
-7.948000e-3,-5.20e-2,
-7.944000e-3,-5.20e-2,
-7.940000e-3,-5.60e-2,
-7.936000e-3,-5.60e-2,
-7.932000e-3,-5.40e-2,
-7.928000e-3,-5.40e-2,
-7.924000e-3,-5.80e-2,
-7.920000e-3,-5.80e-2,
-7.916000e-3,-5.80e-2,
-7.912000e-3,-5.80e-2,
-7.908000e-3,-5.40e-2,
-7.904000e-3,-5.40e-2,
-7.900000e-3,-5.80e-2,
-7.896000e-3,-5.80e-2,
-7.892000e-3,-5.40e-2,
-7.888000e-3,-5.40e-2,
-7.884000e-3,-5.40e-2,
-7.880000e-3,-5.40e-2,
-7.876000e-3,-5.40e-2,
-7.872000e-3,-5.40e-2,
-7.868000e-3,-5.60e-2,
-7.864000e-3,-5.60e-2,
-7.860000e-3,-5.40e-2,
-7.856000e-3,-5.40e-2,
-7.852000e-3,-5.80e-2,
-7.848000e-3,-5.80e-2,
-7.844000e-3,-5.60e-2,
-7.840000e-3,-5.60e-2,
-7.836000e-3,-5.80e-2,
-7.832000e-3,-5.80e-2,
-7.828000e-3,-6.00e-2,
-7.824000e-3,-6.00e-2,
-7.820000e-3,-6.00e-2,
-7.816000e-3,-6.00e-2,
-7.812000e-3,-5.60e-2,
-7.808000e-3,-5.60e-2,
-7.804000e-3,-5.80e-2,
-7.800000e-3,-5.80e-2,
-7.796000e-3,-5.60e-2,
-7.792000e-3,-5.60e-2,
-7.788000e-3,-5.80e-2,
-7.784000e-3,-5.80e-2,
-7.780000e-3,-6.00e-2,
-7.776000e-3,-6.00e-2,
-7.772000e-3,-5.80e-2,
-7.768000e-3,-5.80e-2,
-7.764000e-3,-5.80e-2,
-7.760000e-3,-5.80e-2,
-7.756000e-3,-5.80e-2,
-7.752000e-3,-5.80e-2,
-7.748000e-3,-6.00e-2,
-7.744000e-3,-6.00e-2,
-7.740000e-3,-6.20e-2,
-7.736000e-3,-6.20e-2,
-7.732000e-3,-6.00e-2,
-7.728000e-3,-6.00e-2,
-7.724000e-3,-5.80e-2,
-7.720000e-3,-5.80e-2,
-7.716000e-3,-6.00e-2,
-7.712000e-3,-6.00e-2,
-7.708000e-3,-6.20e-2,
-7.704000e-3,-6.20e-2,
-7.700000e-3,-6.00e-2,
-7.696000e-3,-6.00e-2,
-7.692000e-3,-6.40e-2,
-7.688000e-3,-6.40e-2,
-7.684000e-3,-6.00e-2,
-7.680000e-3,-6.00e-2,
-7.676000e-3,-6.00e-2,
-7.672000e-3,-6.00e-2,
-7.668000e-3,-6.20e-2,
-7.664000e-3,-6.20e-2,
-7.660000e-3,-5.80e-2,
-7.656000e-3,-5.80e-2,
-7.652000e-3,-6.20e-2,
-7.648000e-3,-6.20e-2,
-7.644000e-3,-6.20e-2,
-7.640000e-3,-6.20e-2,
-7.636000e-3,-6.20e-2,
-7.632000e-3,-6.20e-2,
-7.628000e-3,-6.20e-2,
-7.624000e-3,-6.20e-2,
-7.620000e-3,-6.00e-2,
-7.616000e-3,-6.00e-2,
-7.612000e-3,-6.00e-2,
-7.608000e-3,-6.00e-2,
-7.604000e-3,-6.20e-2,
-7.600000e-3,-6.20e-2,
-7.596000e-3,-6.40e-2,
-7.592000e-3,-6.40e-2,
-7.588000e-3,-6.60e-2,
-7.584000e-3,-6.60e-2,
-7.580000e-3,-6.20e-2,
-7.576000e-3,-6.20e-2,
-7.572000e-3,-6.20e-2,
-7.568000e-3,-6.20e-2,
-7.564000e-3,-6.20e-2,
-7.560000e-3,-6.20e-2,
-7.556000e-3,-6.60e-2,
-7.552000e-3,-6.60e-2,
-7.548000e-3,-6.00e-2,
-7.544000e-3,-6.00e-2,
-7.540000e-3,-6.20e-2,
-7.536000e-3,-6.20e-2,
-7.532000e-3,-6.00e-2,
-7.528000e-3,-6.00e-2,
-7.524000e-3,-6.20e-2,
-7.520000e-3,-6.20e-2,
-7.516000e-3,-6.60e-2,
-7.512000e-3,-6.60e-2,
-7.508000e-3,-6.20e-2,
-7.504000e-3,-6.20e-2,
-7.500000e-3,-6.00e-2,
-7.496000e-3,-6.00e-2,
-7.492000e-3,-6.60e-2,
-7.488000e-3,-6.60e-2,
-7.484000e-3,-6.20e-2,
-7.480000e-3,-6.20e-2,
-7.476000e-3,-6.20e-2,
-7.472000e-3,-6.20e-2,
-7.468000e-3,-6.60e-2,
-7.464000e-3,-6.60e-2,
-7.460000e-3,-6.40e-2,
-7.456000e-3,-6.40e-2,
-7.452000e-3,-6.20e-2,
-7.448000e-3,-6.20e-2,
-7.444000e-3,-6.60e-2,
-7.440000e-3,-6.60e-2,
-7.436000e-3,-6.40e-2,
-7.432000e-3,-6.40e-2,
-7.428000e-3,-6.40e-2,
-7.424000e-3,-6.40e-2,
-7.420000e-3,-6.40e-2,
-7.416000e-3,-6.40e-2,
-7.412000e-3,-6.20e-2,
-7.408000e-3,-6.20e-2,
-7.404000e-3,-6.80e-2,
-7.400000e-3,-6.80e-2,
-7.396000e-3,-6.80e-2,
-7.392000e-3,-6.80e-2,
-7.388000e-3,-6.80e-2,
-7.384000e-3,-6.80e-2,
-7.380000e-3,-6.60e-2,
-7.376000e-3,-6.60e-2,
-7.372000e-3,-6.60e-2,
-7.368000e-3,-6.60e-2,
-7.364000e-3,-6.80e-2,
-7.360000e-3,-6.80e-2,
-7.356000e-3,-6.60e-2,
-7.352000e-3,-6.60e-2,
-7.348000e-3,-6.80e-2,
-7.344000e-3,-6.80e-2,
-7.340000e-3,-6.60e-2,
-7.336000e-3,-6.60e-2,
-7.332000e-3,-6.40e-2,
-7.328000e-3,-6.40e-2,
-7.324000e-3,-6.60e-2,
-7.320000e-3,-6.60e-2,
-7.316000e-3,-6.60e-2,
-7.312000e-3,-6.60e-2,
-7.308000e-3,-6.60e-2,
-7.304000e-3,-6.60e-2,
-7.300000e-3,-6.60e-2,
-7.296000e-3,-6.60e-2,
-7.292000e-3,-6.20e-2,
-7.288000e-3,-6.20e-2,
-7.284000e-3,-7.00e-2,
-7.280000e-3,-7.00e-2,
-7.276000e-3,-6.60e-2,
-7.272000e-3,-6.60e-2,
-7.268000e-3,-6.60e-2,
-7.264000e-3,-6.60e-2,
-7.260000e-3,-6.80e-2,
-7.256000e-3,-6.80e-2,
-7.252000e-3,-7.00e-2,
-7.248000e-3,-7.00e-2,
-7.244000e-3,-6.80e-2,
-7.240000e-3,-6.80e-2,
-7.236000e-3,-7.00e-2,
-7.232000e-3,-7.00e-2,
-7.228000e-3,-7.00e-2,
-7.224000e-3,-7.00e-2,
-7.220000e-3,-6.60e-2,
-7.216000e-3,-6.60e-2,
-7.212000e-3,-6.80e-2,
-7.208000e-3,-6.80e-2,
-7.204000e-3,-7.00e-2,
-7.200000e-3,-7.00e-2,
-7.196000e-3,-6.60e-2,
-7.192000e-3,-6.60e-2,
-7.188000e-3,-6.80e-2,
-7.184000e-3,-6.80e-2,
-7.180000e-3,-6.80e-2,
-7.176000e-3,-6.80e-2,
-7.172000e-3,-6.80e-2,
-7.168000e-3,-6.80e-2,
-7.164000e-3,-6.80e-2,
-7.160000e-3,-6.80e-2,
-7.156000e-3,-6.80e-2,
-7.152000e-3,-6.80e-2,
-7.148000e-3,-7.40e-2,
-7.144000e-3,-7.40e-2,
-7.140000e-3,-7.00e-2,
-7.136000e-3,-7.00e-2,
-7.132000e-3,-7.00e-2,
-7.128000e-3,-7.00e-2,
-7.124000e-3,-7.00e-2,
-7.120000e-3,-7.00e-2,
-7.116000e-3,-6.80e-2,
-7.112000e-3,-6.80e-2,
-7.108000e-3,-7.00e-2,
-7.104000e-3,-7.00e-2,
-7.100000e-3,-7.00e-2,
-7.096000e-3,-7.00e-2,
-7.092000e-3,-7.40e-2,
-7.088000e-3,-7.40e-2,
-7.084000e-3,-7.40e-2,
-7.080000e-3,-7.40e-2,
-7.076000e-3,-7.40e-2,
-7.072000e-3,-7.40e-2,
-7.068000e-3,-6.80e-2,
-7.064000e-3,-6.80e-2,
-7.060000e-3,-7.00e-2,
-7.056000e-3,-7.00e-2,
-7.052000e-3,-7.00e-2,
-7.048000e-3,-7.00e-2,
-7.044000e-3,-7.00e-2,
-7.040000e-3,-7.00e-2,
-7.036000e-3,-7.40e-2,
-7.032000e-3,-7.40e-2,
-7.028000e-3,-7.00e-2,
-7.024000e-3,-7.00e-2,
-7.020000e-3,-7.00e-2,
-7.016000e-3,-7.00e-2,
-7.012000e-3,-7.40e-2,
-7.008000e-3,-7.40e-2,
-7.004000e-3,-7.40e-2,
-7.000000e-3,-7.40e-2,
-6.996000e-3,-7.00e-2,
-6.992000e-3,-7.00e-2,
-6.988000e-3,-7.00e-2,
-6.984000e-3,-7.00e-2,
-6.980000e-3,-7.40e-2,
-6.976000e-3,-7.40e-2,
-6.972000e-3,-7.00e-2,
-6.968000e-3,-7.00e-2,
-6.964000e-3,-7.40e-2,
-6.960000e-3,-7.40e-2,
-6.956000e-3,-7.00e-2,
-6.952000e-3,-7.00e-2,
-6.948000e-3,-7.40e-2,
-6.944000e-3,-7.40e-2,
-6.940000e-3,-7.40e-2,
-6.936000e-3,-7.40e-2,
-6.932000e-3,-7.00e-2,
-6.928000e-3,-7.00e-2,
-6.924000e-3,-7.40e-2,
-6.920000e-3,-7.40e-2,
-6.916000e-3,-7.20e-2,
-6.912000e-3,-7.20e-2,
-6.908000e-3,-7.00e-2,
-6.904000e-3,-7.00e-2,
-6.900000e-3,-7.60e-2,
-6.896000e-3,-7.60e-2,
-6.892000e-3,-7.40e-2,
-6.888000e-3,-7.40e-2,
-6.884000e-3,-7.60e-2,
-6.880000e-3,-7.60e-2,
-6.876000e-3,-7.40e-2,
-6.872000e-3,-7.40e-2,
-6.868000e-3,-7.20e-2,
-6.864000e-3,-7.20e-2,
-6.860000e-3,-7.20e-2,
-6.856000e-3,-7.20e-2,
-6.852000e-3,-7.00e-2,
-6.848000e-3,-7.00e-2,
-6.844000e-3,-7.40e-2,
-6.840000e-3,-7.40e-2,
-6.836000e-3,-7.00e-2,
-6.832000e-3,-7.00e-2,
-6.828000e-3,-7.40e-2,
-6.824000e-3,-7.40e-2,
-6.820000e-3,-7.40e-2,
-6.816000e-3,-7.40e-2,
-6.812000e-3,-7.60e-2,
-6.808000e-3,-7.60e-2,
-6.804000e-3,-7.60e-2,
-6.800000e-3,-7.60e-2,
-6.796000e-3,-7.40e-2,
-6.792000e-3,-7.40e-2,
-6.788000e-3,-7.80e-2,
-6.784000e-3,-7.80e-2,
-6.780000e-3,-7.60e-2,
-6.776000e-3,-7.60e-2,
-6.772000e-3,-7.40e-2,
-6.768000e-3,-7.40e-2,
-6.764000e-3,-7.60e-2,
-6.760000e-3,-7.60e-2,
-6.756000e-3,-7.80e-2,
-6.752000e-3,-7.80e-2,
-6.748000e-3,-7.60e-2,
-6.744000e-3,-7.60e-2,
-6.740000e-3,-7.60e-2,
-6.736000e-3,-7.60e-2,
-6.732000e-3,-7.60e-2,
-6.728000e-3,-7.60e-2,
-6.724000e-3,-7.60e-2,
-6.720000e-3,-7.60e-2,
-6.716000e-3,-7.60e-2,
-6.712000e-3,-7.60e-2,
-6.708000e-3,-7.60e-2,
-6.704000e-3,-7.60e-2,
-6.700000e-3,-7.60e-2,
-6.696000e-3,-7.60e-2,
-6.692000e-3,-7.80e-2,
-6.688000e-3,-7.80e-2,
-6.684000e-3,-7.60e-2,
-6.680000e-3,-7.60e-2,
-6.676000e-3,-7.60e-2,
-6.672000e-3,-7.60e-2,
-6.668000e-3,-7.80e-2,
-6.664000e-3,-7.80e-2,
-6.660000e-3,-7.60e-2,
-6.656000e-3,-7.60e-2,
-6.652000e-3,-7.80e-2,
-6.648000e-3,-7.80e-2,
-6.644000e-3,-7.60e-2,
-6.640000e-3,-7.60e-2,
-6.636000e-3,-7.80e-2,
-6.632000e-3,-7.80e-2,
-6.628000e-3,-7.80e-2,
-6.624000e-3,-7.80e-2,
-6.620000e-3,-7.80e-2,
-6.616000e-3,-7.80e-2,
-6.612000e-3,-7.80e-2,
-6.608000e-3,-7.80e-2,
-6.604000e-3,-7.80e-2,
-6.600000e-3,-7.80e-2,
-6.596000e-3,-7.80e-2,
-6.592000e-3,-7.80e-2,
-6.588000e-3,-7.80e-2,
-6.584000e-3,-7.80e-2,
-6.580000e-3,-7.80e-2,
-6.576000e-3,-7.80e-2,
-6.572000e-3,-7.80e-2,
-6.568000e-3,-7.80e-2,
-6.564000e-3,-7.80e-2,
-6.560000e-3,-7.80e-2,
-6.556000e-3,-7.80e-2,
-6.552000e-3,-7.80e-2,
-6.548000e-3,-7.60e-2,
-6.544000e-3,-7.60e-2,
-6.540000e-3,-7.80e-2,
-6.536000e-3,-7.80e-2,
-6.532000e-3,-7.60e-2,
-6.528000e-3,-7.60e-2,
-6.524000e-3,-7.60e-2,
-6.520000e-3,-7.60e-2,
-6.516000e-3,-7.60e-2,
-6.512000e-3,-7.60e-2,
-6.508000e-3,-7.40e-2,
-6.504000e-3,-7.40e-2,
-6.500000e-3,-7.80e-2,
-6.496000e-3,-7.80e-2,
-6.492000e-3,-7.60e-2,
-6.488000e-3,-7.60e-2,
-6.484000e-3,-7.40e-2,
-6.480000e-3,-7.40e-2,
-6.476000e-3,-7.60e-2,
-6.472000e-3,-7.60e-2,
-6.468000e-3,-7.00e-2,
-6.464000e-3,-7.00e-2,
-6.460000e-3,-7.20e-2,
-6.456000e-3,-7.20e-2,
-6.452000e-3,-7.00e-2,
-6.448000e-3,-7.00e-2,
-6.444000e-3,-7.00e-2,
-6.440000e-3,-7.00e-2,
-6.436000e-3,-7.00e-2,
-6.432000e-3,-7.00e-2,
-6.428000e-3,-7.00e-2,
-6.424000e-3,-7.00e-2,
-6.420000e-3,-7.00e-2,
-6.416000e-3,-7.00e-2,
-6.412000e-3,-6.80e-2,
-6.408000e-3,-6.80e-2,
-6.404000e-3,-6.60e-2,
-6.400000e-3,-6.60e-2,
-6.396000e-3,-6.80e-2,
-6.392000e-3,-6.80e-2,
-6.388000e-3,-6.20e-2,
-6.384000e-3,-6.20e-2,
-6.380000e-3,-6.80e-2,
-6.376000e-3,-6.80e-2,
-6.372000e-3,-6.60e-2,
-6.368000e-3,-6.60e-2,
-6.364000e-3,-6.40e-2,
-6.360000e-3,-6.40e-2,
-6.356000e-3,-6.20e-2,
-6.352000e-3,-6.20e-2,
-6.348000e-3,-6.20e-2,
-6.344000e-3,-6.20e-2,
-6.340000e-3,-6.40e-2,
-6.336000e-3,-6.40e-2,
-6.332000e-3,-6.20e-2,
-6.328000e-3,-6.20e-2,
-6.324000e-3,-6.20e-2,
-6.320000e-3,-6.20e-2,
-6.316000e-3,-6.00e-2,
-6.312000e-3,-6.00e-2,
-6.308000e-3,-6.00e-2,
-6.304000e-3,-6.00e-2,
-6.300000e-3,-5.80e-2,
-6.296000e-3,-5.80e-2,
-6.292000e-3,-5.80e-2,
-6.288000e-3,-5.80e-2,
-6.284000e-3,-5.60e-2,
-6.280000e-3,-5.60e-2,
-6.276000e-3,-5.80e-2,
-6.272000e-3,-5.80e-2,
-6.268000e-3,-6.20e-2,
-6.264000e-3,-6.20e-2,
-6.260000e-3,-6.00e-2,
