New Data/Calibration (Widest)/A0032CH1 raw.CSV

Memory Length,4000,
Trigger Level,1.80000e+01,
Source,CH1,
Probe,1.0X,
Vertical Units,V,
Vertical Scale,5.00000e-02,
Vertical Position,3.20000e-02,
Horizontal Units,S,
Horizontal Scale,5.00000e-04,
Horizontal Position,4.0000000e-03,
Horizontal Mode,Main,
Sampling Period,2.00000e-06,
Firmware,V1.14,
Time, ,
Mode,Detail,
Waveform Data,
0.000000e+0,1.20e-2,
2.000000e-6,1.20e-2,
4.000000e-6,1.20e-2,
6.000000e-6,1.20e-2,
8.000000e-6,1.20e-2,
1.000000e-5,1.40e-2,
1.200000e-5,1.40e-2,
1.400000e-5,1.20e-2,
1.600000e-5,1.20e-2,
1.800000e-5,1.20e-2,
2.000000e-5,1.20e-2,
2.200000e-5,1.20e-2,
2.400000e-5,1.20e-2,
2.600000e-5,1.40e-2,
2.800000e-5,1.40e-2,
3.000000e-5,1.60e-2,
3.200000e-5,1.60e-2,
3.400000e-5,1.60e-2,
3.600000e-5,1.60e-2,
3.800000e-5,1.60e-2,
4.000000e-5,1.60e-2,
4.200000e-5,1.60e-2,
4.400000e-5,1.60e-2,
4.600000e-5,1.60e-2,
4.800000e-5,1.60e-2,
5.000000e-5,1.40e-2,
5.200000e-5,1.40e-2,
5.400000e-5,1.60e-2,
5.600000e-5,1.60e-2,
5.800000e-5,1.80e-2,
6.000000e-5,1.80e-2,
6.200000e-5,1.80e-2,
6.400000e-5,1.80e-2,
6.600000e-5,1.60e-2,
6.800000e-5,1.60e-2,
7.000000e-5,1.60e-2,
7.200000e-5,1.60e-2,
7.400000e-5,1.80e-2,
7.600000e-5,1.80e-2,
7.800000e-5,1.80e-2,
8.000000e-5,1.80e-2,
8.200000e-5,1.80e-2,
8.400000e-5,1.80e-2,
8.600000e-5,2.00e-2,
8.800000e-5,2.00e-2,
9.000000e-5,1.80e-2,
9.200000e-5,1.80e-2,
9.400000e-5,2.00e-2,
9.600000e-5,2.00e-2,
9.800000e-5,1.80e-2,
1.000000e-4,1.80e-2,
1.020000e-4,1.80e-2,
1.040000e-4,1.80e-2,
1.060000e-4,1.80e-2,
1.080000e-4,1.80e-2,
1.100000e-4,2.00e-2,
1.120000e-4,2.00e-2,
1.140000e-4,2.00e-2,
1.160000e-4,2.00e-2,
1.180000e-4,1.80e-2,
1.200000e-4,1.80e-2,
1.220000e-4,1.80e-2,
1.240000e-4,1.80e-2,
1.260000e-4,1.80e-2,
1.280000e-4,1.80e-2,
1.300000e-4,2.00e-2,
1.320000e-4,2.00e-2,
1.340000e-4,1.80e-2,
1.360000e-4,1.80e-2,
1.380000e-4,2.00e-2,
1.400000e-4,2.00e-2,
1.420000e-4,2.00e-2,
1.440000e-4,2.00e-2,
1.460000e-4,2.00e-2,
1.480000e-4,2.00e-2,
1.500000e-4,2.20e-2,
1.520000e-4,2.20e-2,
1.540000e-4,2.00e-2,
1.560000e-4,2.00e-2,
1.580000e-4,2.40e-2,
1.600000e-4,2.40e-2,
1.620000e-4,2.20e-2,
1.640000e-4,2.20e-2,
1.660000e-4,2.20e-2,
1.680000e-4,2.20e-2,
1.700000e-4,2.20e-2,
1.720000e-4,2.20e-2,
1.740000e-4,2.20e-2,
1.760000e-4,2.20e-2,
1.780000e-4,2.20e-2,
1.800000e-4,2.20e-2,
1.820000e-4,2.20e-2,
1.840000e-4,2.20e-2,
1.860000e-4,2.20e-2,
1.880000e-4,2.20e-2,
1.900000e-4,2.20e-2,
1.920000e-4,2.20e-2,
1.940000e-4,2.40e-2,
1.960000e-4,2.40e-2,
1.980000e-4,2.40e-2,
2.000000e-4,2.40e-2,
2.020000e-4,2.40e-2,
2.040000e-4,2.40e-2,
2.060000e-4,2.20e-2,
2.080000e-4,2.20e-2,
2.100000e-4,2.20e-2,
2.120000e-4,2.20e-2,
2.140000e-4,2.20e-2,
2.160000e-4,2.20e-2,
2.180000e-4,2.40e-2,
2.200000e-4,2.40e-2,
2.220000e-4,2.60e-2,
2.240000e-4,2.60e-2,
2.260000e-4,2.60e-2,
2.280000e-4,2.60e-2,
2.300000e-4,2.60e-2,
2.320000e-4,2.60e-2,
2.340000e-4,2.40e-2,
2.360000e-4,2.40e-2,
2.380000e-4,2.40e-2,
2.400000e-4,2.40e-2,
2.420000e-4,2.60e-2,
2.440000e-4,2.60e-2,
2.460000e-4,2.60e-2,
2.480000e-4,2.60e-2,
2.500000e-4,2.60e-2,
2.520000e-4,2.60e-2,
2.540000e-4,2.80e-2,
2.560000e-4,2.80e-2,
2.580000e-4,2.80e-2,
2.600000e-4,2.80e-2,
2.620000e-4,2.60e-2,
2.640000e-4,2.60e-2,
2.660000e-4,2.60e-2,
2.680000e-4,2.60e-2,
2.700000e-4,2.80e-2,
2.720000e-4,2.80e-2,
2.740000e-4,2.60e-2,
2.760000e-4,2.60e-2,
2.780000e-4,2.60e-2,
2.800000e-4,2.60e-2,
2.820000e-4,2.80e-2,
2.840000e-4,2.80e-2,
2.860000e-4,2.60e-2,
2.880000e-4,2.60e-2,
2.900000e-4,2.80e-2,
2.920000e-4,2.80e-2,
2.940000e-4,2.60e-2,
2.960000e-4,2.60e-2,
2.980000e-4,2.80e-2,
3.000000e-4,2.80e-2,
3.020000e-4,3.00e-2,
3.040000e-4,3.00e-2,
3.060000e-4,2.80e-2,
3.080000e-4,2.80e-2,
3.100000e-4,2.80e-2,
3.120000e-4,2.80e-2,
3.140000e-4,2.80e-2,
3.160000e-4,2.80e-2,
3.180000e-4,2.80e-2,
3.200000e-4,2.80e-2,
3.220000e-4,3.00e-2,
3.240000e-4,3.00e-2,
3.260000e-4,3.20e-2,
3.280000e-4,3.20e-2,
3.300000e-4,2.80e-2,
3.320000e-4,2.80e-2,
3.340000e-4,3.20e-2,
3.360000e-4,3.20e-2,
3.380000e-4,2.80e-2,
3.400000e-4,2.80e-2,
3.420000e-4,3.40e-2,
3.440000e-4,3.40e-2,
3.460000e-4,3.00e-2,
3.480000e-4,3.00e-2,
3.500000e-4,3.00e-2,
3.520000e-4,3.00e-2,
3.540000e-4,3.20e-2,
3.560000e-4,3.20e-2,
3.580000e-4,3.40e-2,
3.600000e-4,3.40e-2,
3.620000e-4,3.00e-2,
3.640000e-4,3.00e-2,
3.660000e-4,3.00e-2,
3.680000e-4,3.00e-2,
3.700000e-4,3.20e-2,
3.720000e-4,3.20e-2,
3.740000e-4,3.00e-2,
3.760000e-4,3.00e-2,
3.780000e-4,3.20e-2,
3.800000e-4,3.20e-2,
3.820000e-4,3.20e-2,
3.840000e-4,3.20e-2,
3.860000e-4,3.20e-2,
3.880000e-4,3.20e-2,
3.900000e-4,3.20e-2,
3.920000e-4,3.20e-2,
3.940000e-4,3.40e-2,
3.960000e-4,3.40e-2,
3.980000e-4,3.60e-2,
4.000000e-4,3.60e-2,
4.020000e-4,3.60e-2,
4.040000e-4,3.60e-2,
4.060000e-4,3.40e-2,
4.080000e-4,3.40e-2,
4.100000e-4,3.40e-2,
4.120000e-4,3.40e-2,
4.140000e-4,3.60e-2,
4.160000e-4,3.60e-2,
4.180000e-4,3.60e-2,
4.200000e-4,3.60e-2,
4.220000e-4,3.40e-2,
4.240000e-4,3.40e-2,
4.260000e-4,3.80e-2,
4.280000e-4,3.80e-2,
4.300000e-4,3.60e-2,
4.320000e-4,3.60e-2,
4.340000e-4,3.60e-2,
4.360000e-4,3.60e-2,
4.380000e-4,3.60e-2,
4.400000e-4,3.60e-2,
4.420000e-4,3.60e-2,
4.440000e-4,3.60e-2,
4.460000e-4,3.80e-2,
4.480000e-4,3.80e-2,
4.500000e-4,3.80e-2,
4.520000e-4,3.80e-2,
4.540000e-4,3.80e-2,
4.560000e-4,3.80e-2,
4.580000e-4,3.60e-2,
4.600000e-4,3.60e-2,
4.620000e-4,3.80e-2,
4.640000e-4,3.80e-2,
4.660000e-4,3.60e-2,
4.680000e-4,3.60e-2,
4.700000e-4,3.80e-2,
4.720000e-4,3.80e-2,
4.740000e-4,3.60e-2,
4.760000e-4,3.60e-2,
4.780000e-4,3.80e-2,
4.800000e-4,3.80e-2,
4.820000e-4,3.80e-2,
4.840000e-4,3.80e-2,
4.860000e-4,3.80e-2,
4.880000e-4,3.80e-2,
4.900000e-4,3.80e-2,
4.920000e-4,3.80e-2,
4.940000e-4,3.80e-2,
4.960000e-4,3.80e-2,
4.980000e-4,3.80e-2,
5.000000e-4,3.80e-2,
5.020000e-4,3.80e-2,
5.040000e-4,3.80e-2,
5.060000e-4,3.80e-2,
5.080000e-4,3.80e-2,
5.100000e-4,3.80e-2,
5.120000e-4,3.80e-2,
5.140000e-4,3.80e-2,
5.160000e-4,3.80e-2,
5.180000e-4,3.80e-2,
5.200000e-4,3.80e-2,
5.220000e-4,3.80e-2,
5.240000e-4,3.80e-2,
5.260000e-4,4.00e-2,
5.280000e-4,4.00e-2,
5.300000e-4,3.80e-2,
5.320000e-4,3.80e-2,
5.340000e-4,4.00e-2,
5.360000e-4,4.00e-2,
5.380000e-4,4.00e-2,
5.400000e-4,4.00e-2,
5.420000e-4,4.00e-2,
5.440000e-4,4.00e-2,
5.460000e-4,4.00e-2,
5.480000e-4,4.00e-2,
5.500000e-4,4.20e-2,
5.520000e-4,4.20e-2,
5.540000e-4,4.20e-2,
5.560000e-4,4.20e-2,
5.580000e-4,4.00e-2,
5.600000e-4,4.00e-2,
5.620000e-4,4.40e-2,
5.640000e-4,4.40e-2,
5.660000e-4,4.40e-2,
5.680000e-4,4.40e-2,
5.700000e-4,4.00e-2,
5.720000e-4,4.00e-2,
5.740000e-4,4.20e-2,
5.760000e-4,4.20e-2,
5.780000e-4,4.20e-2,
5.800000e-4,4.20e-2,
5.820000e-4,4.20e-2,
5.840000e-4,4.20e-2,
5.860000e-4,4.40e-2,
5.880000e-4,4.40e-2,
5.900000e-4,4.00e-2,
5.920000e-4,4.00e-2,
5.940000e-4,4.40e-2,
5.960000e-4,4.40e-2,
5.980000e-4,4.60e-2,
6.000000e-4,4.60e-2,
6.020000e-4,4.60e-2,
6.040000e-4,4.60e-2,
6.060000e-4,4.40e-2,
6.080000e-4,4.40e-2,
6.100000e-4,4.60e-2,
6.120000e-4,4.60e-2,
6.140000e-4,4.40e-2,
6.160000e-4,4.40e-2,
6.180000e-4,4.40e-2,
6.200000e-4,4.40e-2,
6.220000e-4,4.40e-2,
6.240000e-4,4.40e-2,
6.260000e-4,4.60e-2,
6.280000e-4,4.60e-2,
6.300000e-4,4.60e-2,
6.320000e-4,4.60e-2,
6.340000e-4,4.40e-2,
6.360000e-4,4.40e-2,
6.380000e-4,4.60e-2,
6.400000e-4,4.60e-2,
6.420000e-4,4.80e-2,
6.440000e-4,4.80e-2,
6.460000e-4,4.80e-2,
6.480000e-4,4.80e-2,
6.500000e-4,4.60e-2,
6.520000e-4,4.60e-2,
6.540000e-4,4.40e-2,
6.560000e-4,4.40e-2,
6.580000e-4,4.60e-2,
6.600000e-4,4.60e-2,
6.620000e-4,4.60e-2,
6.640000e-4,4.60e-2,
6.660000e-4,4.60e-2,
6.680000e-4,4.60e-2,
6.700000e-4,4.80e-2,
6.720000e-4,4.80e-2,
6.740000e-4,4.60e-2,
6.760000e-4,4.60e-2,
6.780000e-4,4.60e-2,
6.800000e-4,4.60e-2,
6.820000e-4,4.80e-2,
6.840000e-4,4.80e-2,
6.860000e-4,4.80e-2,
6.880000e-4,4.80e-2,
6.900000e-4,4.80e-2,
6.920000e-4,4.80e-2,
6.940000e-4,4.80e-2,
6.960000e-4,4.80e-2,
6.980000e-4,5.00e-2,
7.000000e-4,5.00e-2,
7.020000e-4,4.80e-2,
7.040000e-4,4.80e-2,
7.060000e-4,5.00e-2,
7.080000e-4,5.00e-2,
7.100000e-4,5.00e-2,
7.120000e-4,5.00e-2,
7.140000e-4,4.80e-2,
7.160000e-4,4.80e-2,
7.180000e-4,4.80e-2,
7.200000e-4,4.80e-2,
7.220000e-4,4.80e-2,
7.240000e-4,4.80e-2,
7.260000e-4,5.00e-2,
7.280000e-4,5.00e-2,
7.300000e-4,4.80e-2,
7.320000e-4,4.80e-2,
7.340000e-4,5.20e-2,
7.360000e-4,5.20e-2,
7.380000e-4,5.20e-2,
7.400000e-4,5.20e-2,
7.420000e-4,5.20e-2,
7.440000e-4,5.20e-2,
7.460000e-4,5.00e-2,
7.480000e-4,5.00e-2,
7.500000e-4,5.00e-2,
7.520000e-4,5.00e-2,
7.540000e-4,5.00e-2,
7.560000e-4,5.00e-2,
7.580000e-4,5.00e-2,
7.600000e-4,5.00e-2,
7.620000e-4,5.00e-2,
7.640000e-4,5.00e-2,
7.660000e-4,5.20e-2,
7.680000e-4,5.20e-2,
7.700000e-4,5.00e-2,
7.720000e-4,5.00e-2,
7.740000e-4,5.20e-2,
7.760000e-4,5.20e-2,
7.780000e-4,5.00e-2,
7.800000e-4,5.00e-2,
7.820000e-4,5.20e-2,
7.840000e-4,5.20e-2,
7.860000e-4,5.40e-2,
7.880000e-4,5.40e-2,
7.900000e-4,5.40e-2,
7.920000e-4,5.40e-2,
7.940000e-4,5.40e-2,
7.960000e-4,5.40e-2,
7.980000e-4,5.40e-2,
8.000000e-4,5.40e-2,
8.020000e-4,5.20e-2,
8.040000e-4,5.20e-2,
8.060000e-4,5.60e-2,
8.080000e-4,5.60e-2,
8.100000e-4,5.40e-2,
8.120000e-4,5.40e-2,
8.140000e-4,5.40e-2,
8.160000e-4,5.40e-2,
8.180000e-4,5.60e-2,
8.200000e-4,5.60e-2,
8.220000e-4,5.60e-2,
8.240000e-4,5.60e-2,
8.260000e-4,5.60e-2,
8.280000e-4,5.60e-2,
8.300000e-4,5.40e-2,
8.320000e-4,5.40e-2,
8.340000e-4,5.80e-2,
8.360000e-4,5.80e-2,
8.380000e-4,5.40e-2,
8.400000e-4,5.40e-2,
8.420000e-4,5.20e-2,
8.440000e-4,5.20e-2,
8.460000e-4,6.00e-2,
8.480000e-4,6.00e-2,
8.500000e-4,5.80e-2,
8.520000e-4,5.80e-2,
8.540000e-4,5.80e-2,
8.560000e-4,5.80e-2,
8.580000e-4,5.60e-2,
8.600000e-4,5.60e-2,
8.620000e-4,5.80e-2,
8.640000e-4,5.80e-2,
8.660000e-4,5.80e-2,
8.680000e-4,5.80e-2,
8.700000e-4,5.60e-2,
8.720000e-4,5.60e-2,
8.740000e-4,6.00e-2,
8.760000e-4,6.00e-2,
8.780000e-4,5.60e-2,
8.800000e-4,5.60e-2,
8.820000e-4,5.80e-2,
8.840000e-4,5.80e-2,
8.860000e-4,5.80e-2,
8.880000e-4,5.80e-2,
8.900000e-4,5.60e-2,
8.920000e-4,5.60e-2,
8.940000e-4,5.60e-2,
8.960000e-4,5.60e-2,
8.980000e-4,5.80e-2,
9.000000e-4,5.80e-2,
9.020000e-4,6.00e-2,
9.040000e-4,6.00e-2,
9.060000e-4,6.00e-2,
9.080000e-4,6.00e-2,
9.100000e-4,6.20e-2,
9.120000e-4,6.20e-2,
9.140000e-4,5.80e-2,
9.160000e-4,5.80e-2,
9.180000e-4,6.00e-2,
9.200000e-4,6.00e-2,
9.220000e-4,6.00e-2,
9.240000e-4,6.00e-2,
9.260000e-4,6.00e-2,
9.280000e-4,6.00e-2,
9.300000e-4,6.00e-2,
9.320000e-4,6.00e-2,
9.340000e-4,6.00e-2,
9.360000e-4,6.00e-2,
9.380000e-4,6.20e-2,
9.400000e-4,6.20e-2,
9.420000e-4,6.20e-2,
9.440000e-4,6.20e-2,
9.460000e-4,6.00e-2,
9.480000e-4,6.00e-2,
9.500000e-4,6.20e-2,
9.520000e-4,6.20e-2,
9.540000e-4,6.00e-2,
9.560000e-4,6.00e-2,
9.580000e-4,6.20e-2,
9.600000e-4,6.20e-2,
9.620000e-4,6.20e-2,
9.640000e-4,6.20e-2,
9.660000e-4,6.20e-2,
9.680000e-4,6.20e-2,
9.700000e-4,6.40e-2,
9.720000e-4,6.40e-2,
9.740000e-4,6.00e-2,
9.760000e-4,6.00e-2,
9.780000e-4,6.40e-2,
9.800000e-4,6.40e-2,
9.820000e-4,6.20e-2,
9.840000e-4,6.20e-2,
9.860000e-4,6.40e-2,
9.880000e-4,6.40e-2,
9.900000e-4,6.40e-2,
9.920000e-4,6.40e-2,
9.940000e-4,6.40e-2,
9.960000e-4,6.40e-2,
9.980000e-4,6.40e-2,
1.000000e-3,6.40e-2,
1.002000e-3,6.60e-2,
1.004000e-3,6.60e-2,
1.006000e-3,6.20e-2,
1.008000e-3,6.20e-2,
1.010000e-3,6.40e-2,
1.012000e-3,6.40e-2,
1.014000e-3,6.40e-2,
1.016000e-3,6.40e-2,
1.018000e-3,6.60e-2,
1.020000e-3,6.60e-2,
1.022000e-3,6.40e-2,
1.024000e-3,6.40e-2,
1.026000e-3,6.40e-2,
1.028000e-3,6.40e-2,
1.030000e-3,6.40e-2,
1.032000e-3,6.40e-2,
1.034000e-3,6.60e-2,
1.036000e-3,6.60e-2,
1.038000e-3,6.60e-2,
1.040000e-3,6.60e-2,
1.042000e-3,6.60e-2,
1.044000e-3,6.60e-2,
1.046000e-3,6.60e-2,
1.048000e-3,6.60e-2,
1.050000e-3,6.80e-2,
1.052000e-3,6.80e-2,
1.054000e-3,6.60e-2,
1.056000e-3,6.60e-2,
1.058000e-3,6.60e-2,
1.060000e-3,6.60e-2,
1.062000e-3,6.80e-2,
1.064000e-3,6.80e-2,
1.066000e-3,6.60e-2,
1.068000e-3,6.60e-2,
1.070000e-3,6.80e-2,
1.072000e-3,6.80e-2,
1.074000e-3,6.80e-2,
1.076000e-3,6.80e-2,
1.078000e-3,6.80e-2,
1.080000e-3,6.80e-2,
1.082000e-3,6.80e-2,
1.084000e-3,6.80e-2,
1.086000e-3,6.80e-2,
1.088000e-3,6.80e-2,
1.090000e-3,6.80e-2,
1.092000e-3,6.80e-2,
1.094000e-3,7.00e-2,
1.096000e-3,7.00e-2,
1.098000e-3,7.00e-2,
1.100000e-3,7.00e-2,
1.102000e-3,7.00e-2,
1.104000e-3,7.00e-2,
1.106000e-3,6.80e-2,
1.108000e-3,6.80e-2,
1.110000e-3,6.80e-2,
1.112000e-3,6.80e-2,
1.114000e-3,7.00e-2,
1.116000e-3,7.00e-2,
1.118000e-3,6.80e-2,
1.120000e-3,6.80e-2,
1.122000e-3,7.00e-2,
1.124000e-3,7.00e-2,
1.126000e-3,7.00e-2,
1.128000e-3,7.00e-2,
1.130000e-3,7.00e-2,
1.132000e-3,7.00e-2,
1.134000e-3,7.00e-2,
1.136000e-3,7.00e-2,
1.138000e-3,7.20e-2,
1.140000e-3,7.20e-2,
1.142000e-3,7.00e-2,
1.144000e-3,7.00e-2,
1.146000e-3,7.00e-2,
1.148000e-3,7.00e-2,
1.150000e-3,7.00e-2,
1.152000e-3,7.00e-2,
1.154000e-3,7.20e-2,
1.156000e-3,7.20e-2,
1.158000e-3,7.00e-2,
1.160000e-3,7.00e-2,
1.162000e-3,7.20e-2,
1.164000e-3,7.20e-2,
1.166000e-3,7.20e-2,
1.168000e-3,7.20e-2,
1.170000e-3,7.20e-2,
1.172000e-3,7.20e-2,
1.174000e-3,7.20e-2,
1.176000e-3,7.20e-2,
1.178000e-3,7.00e-2,
1.180000e-3,7.00e-2,
1.182000e-3,7.40e-2,
1.184000e-3,7.40e-2,
1.186000e-3,7.40e-2,
1.188000e-3,7.40e-2,
1.190000e-3,7.20e-2,
1.192000e-3,7.20e-2,
1.194000e-3,7.00e-2,
1.196000e-3,7.00e-2,
1.198000e-3,7.60e-2,
1.200000e-3,7.60e-2,
1.202000e-3,7.40e-2,
1.204000e-3,7.40e-2,
1.206000e-3,7.60e-2,
1.208000e-3,7.60e-2,
1.210000e-3,7.40e-2,
1.212000e-3,7.40e-2,
1.214000e-3,7.40e-2,
1.216000e-3,7.40e-2,
1.218000e-3,7.40e-2,
1.220000e-3,7.40e-2,
1.222000e-3,7.40e-2,
1.224000e-3,7.40e-2,
1.226000e-3,7.40e-2,
1.228000e-3,7.40e-2,
1.230000e-3,7.60e-2,
1.232000e-3,7.60e-2,
1.234000e-3,7.60e-2,
1.236000e-3,7.60e-2,
1.238000e-3,7.60e-2,
1.240000e-3,7.60e-2,
1.242000e-3,7.60e-2,
1.244000e-3,7.60e-2,
1.246000e-3,7.60e-2,
1.248000e-3,7.60e-2,
1.250000e-3,7.60e-2,
1.252000e-3,7.60e-2,
1.254000e-3,7.80e-2,
1.256000e-3,7.80e-2,
1.258000e-3,7.40e-2,
1.260000e-3,7.40e-2,
1.262000e-3,7.80e-2,
1.264000e-3,7.80e-2,
1.266000e-3,7.80e-2,
1.268000e-3,7.80e-2,
1.270000e-3,7.60e-2,
1.272000e-3,7.60e-2,
1.274000e-3,7.80e-2,
1.276000e-3,7.80e-2,
1.278000e-3,7.60e-2,
1.280000e-3,7.60e-2,
1.282000e-3,7.80e-2,
1.284000e-3,7.80e-2,
1.286000e-3,7.80e-2,
1.288000e-3,7.80e-2,
1.290000e-3,7.80e-2,
1.292000e-3,7.80e-2,
1.294000e-3,7.80e-2,
1.296000e-3,7.80e-2,
1.298000e-3,8.00e-2,
1.300000e-3,8.00e-2,
1.302000e-3,7.80e-2,
1.304000e-3,7.80e-2,
1.306000e-3,7.80e-2,
1.308000e-3,7.80e-2,
1.310000e-3,7.80e-2,
1.312000e-3,7.80e-2,
1.314000e-3,7.80e-2,
1.316000e-3,7.80e-2,
1.318000e-3,8.00e-2,
1.320000e-3,8.00e-2,
1.322000e-3,7.80e-2,
1.324000e-3,7.80e-2,
1.326000e-3,8.20e-2,
1.328000e-3,8.20e-2,
1.330000e-3,8.00e-2,
1.332000e-3,8.00e-2,
1.334000e-3,8.20e-2,
1.336000e-3,8.20e-2,
1.338000e-3,8.00e-2,
1.340000e-3,8.00e-2,
1.342000e-3,8.40e-2,
1.344000e-3,8.40e-2,
1.346000e-3,8.20e-2,
1.348000e-3,8.20e-2,
1.350000e-3,8.20e-2,
1.352000e-3,8.20e-2,
1.354000e-3,8.20e-2,
1.356000e-3,8.20e-2,
1.358000e-3,8.00e-2,
1.360000e-3,8.00e-2,
1.362000e-3,8.00e-2,
1.364000e-3,8.00e-2,
1.366000e-3,8.20e-2,
1.368000e-3,8.20e-2,
1.370000e-3,8.40e-2,
1.372000e-3,8.40e-2,
1.374000e-3,8.20e-2,
1.376000e-3,8.20e-2,
1.378000e-3,8.40e-2,
1.380000e-3,8.40e-2,
1.382000e-3,8.40e-2,
1.384000e-3,8.40e-2,
1.386000e-3,8.40e-2,
1.388000e-3,8.40e-2,
1.390000e-3,8.40e-2,
1.392000e-3,8.40e-2,
1.394000e-3,8.40e-2,
1.396000e-3,8.40e-2,
1.398000e-3,8.20e-2,
1.400000e-3,8.20e-2,
1.402000e-3,8.40e-2,
1.404000e-3,8.40e-2,
1.406000e-3,8.40e-2,
1.408000e-3,8.40e-2,
1.410000e-3,8.40e-2,
1.412000e-3,8.40e-2,
1.414000e-3,8.60e-2,
1.416000e-3,8.60e-2,
1.418000e-3,8.40e-2,
1.420000e-3,8.40e-2,
1.422000e-3,8.60e-2,
1.424000e-3,8.60e-2,
1.426000e-3,8.60e-2,
1.428000e-3,8.60e-2,
1.430000e-3,8.60e-2,
1.432000e-3,8.60e-2,
1.434000e-3,8.60e-2,
1.436000e-3,8.60e-2,
1.438000e-3,8.60e-2,
1.440000e-3,8.60e-2,
1.442000e-3,8.60e-2,
1.444000e-3,8.60e-2,
1.446000e-3,8.60e-2,
1.448000e-3,8.60e-2,
1.450000e-3,8.60e-2,
1.452000e-3,8.60e-2,
1.454000e-3,8.40e-2,
1.456000e-3,8.40e-2,
1.458000e-3,8.60e-2,
1.460000e-3,8.60e-2,
1.462000e-3,8.60e-2,
1.464000e-3,8.60e-2,
1.466000e-3,8.40e-2,
1.468000e-3,8.40e-2,
1.470000e-3,8.80e-2,
1.472000e-3,8.80e-2,
1.474000e-3,8.80e-2,
1.476000e-3,8.80e-2,
1.478000e-3,8.80e-2,
1.480000e-3,8.80e-2,
1.482000e-3,9.00e-2,
1.484000e-3,9.00e-2,
1.486000e-3,8.80e-2,
1.488000e-3,8.80e-2,
1.490000e-3,8.80e-2,
1.492000e-3,8.80e-2,
1.494000e-3,8.80e-2,
1.496000e-3,8.80e-2,
1.498000e-3,8.60e-2,
1.500000e-3,8.60e-2,
1.502000e-3,8.80e-2,
1.504000e-3,8.80e-2,
1.506000e-3,9.00e-2,
1.508000e-3,9.00e-2,
1.510000e-3,9.00e-2,
1.512000e-3,9.00e-2,
1.514000e-3,9.00e-2,
1.516000e-3,9.00e-2,
1.518000e-3,9.00e-2,
1.520000e-3,9.00e-2,
1.522000e-3,9.00e-2,
1.524000e-3,9.00e-2,
1.526000e-3,8.80e-2,
1.528000e-3,8.80e-2,
1.530000e-3,9.00e-2,
1.532000e-3,9.00e-2,
1.534000e-3,9.20e-2,
1.536000e-3,9.20e-2,
1.538000e-3,9.00e-2,
1.540000e-3,9.00e-2,
1.542000e-3,9.00e-2,
1.544000e-3,9.00e-2,
1.546000e-3,9.00e-2,
1.548000e-3,9.00e-2,
1.550000e-3,9.20e-2,
1.552000e-3,9.20e-2,
1.554000e-3,9.40e-2,
1.556000e-3,9.40e-2,
1.558000e-3,9.20e-2,
1.560000e-3,9.20e-2,
1.562000e-3,9.20e-2,
1.564000e-3,9.20e-2,
1.566000e-3,9.20e-2,
1.568000e-3,9.20e-2,
1.570000e-3,9.40e-2,
1.572000e-3,9.40e-2,
1.574000e-3,9.40e-2,
1.576000e-3,9.40e-2,
1.578000e-3,9.40e-2,
1.580000e-3,9.40e-2,
1.582000e-3,9.20e-2,
1.584000e-3,9.20e-2,
1.586000e-3,9.40e-2,
1.588000e-3,9.40e-2,
1.590000e-3,9.60e-2,
1.592000e-3,9.60e-2,
1.594000e-3,9.40e-2,
1.596000e-3,9.40e-2,
1.598000e-3,9.40e-2,
1.600000e-3,9.40e-2,
1.602000e-3,9.40e-2,
1.604000e-3,9.40e-2,
1.606000e-3,9.60e-2,
1.608000e-3,9.60e-2,
1.610000e-3,9.60e-2,
1.612000e-3,9.60e-2,
1.614000e-3,9.40e-2,
1.616000e-3,9.40e-2,
1.618000e-3,9.40e-2,
1.620000e-3,9.40e-2,
1.622000e-3,9.40e-2,
1.624000e-3,9.40e-2,
1.626000e-3,9.40e-2,
1.628000e-3,9.40e-2,
1.630000e-3,9.40e-2,
1.632000e-3,9.40e-2,
1.634000e-3,9.60e-2,
1.636000e-3,9.60e-2,
1.638000e-3,9.40e-2,
1.640000e-3,9.40e-2,
1.642000e-3,9.60e-2,
1.644000e-3,9.60e-2,
1.646000e-3,9.80e-2,
1.648000e-3,9.80e-2,
1.650000e-3,9.60e-2,
1.652000e-3,9.60e-2,
1.654000e-3,9.60e-2,
1.656000e-3,9.60e-2,
1.658000e-3,9.60e-2,
1.660000e-3,9.60e-2,
1.662000e-3,9.60e-2,
1.664000e-3,9.60e-2,
1.666000e-3,9.40e-2,
1.668000e-3,9.40e-2,
1.670000e-3,9.80e-2,
1.672000e-3,9.80e-2,
1.674000e-3,9.80e-2,
1.676000e-3,9.80e-2,
1.678000e-3,9.80e-2,
1.680000e-3,9.80e-2,
1.682000e-3,9.60e-2,
1.684000e-3,9.60e-2,
1.686000e-3,9.80e-2,
1.688000e-3,9.80e-2,
1.690000e-3,9.60e-2,
1.692000e-3,9.60e-2,
1.694000e-3,9.80e-2,
1.696000e-3,9.80e-2,
1.698000e-3,1.00e-1,
1.700000e-3,1.00e-1,
1.702000e-3,9.80e-2,
1.704000e-3,9.80e-2,
1.706000e-3,9.80e-2,
1.708000e-3,9.80e-2,
1.710000e-3,1.00e-1,
1.712000e-3,1.00e-1,
1.714000e-3,9.80e-2,
1.716000e-3,9.80e-2,
1.718000e-3,1.00e-1,
1.720000e-3,1.00e-1,
1.722000e-3,1.00e-1,
1.724000e-3,1.00e-1,
1.726000e-3,1.00e-1,
1.728000e-3,1.00e-1,
1.730000e-3,1.00e-1,
1.732000e-3,1.00e-1,
1.734000e-3,1.00e-1,
1.736000e-3,1.00e-1,
1.738000e-3,1.00e-1,
1.740000e-3,1.00e-1,
1.742000e-3,1.02e-1,
1.744000e-3,1.02e-1,
1.746000e-3,1.02e-1,
1.748000e-3,1.02e-1,
1.750000e-3,1.02e-1,
1.752000e-3,1.02e-1,
1.754000e-3,1.02e-1,
1.756000e-3,1.02e-1,
1.758000e-3,1.00e-1,
1.760000e-3,1.00e-1,
1.762000e-3,1.02e-1,
1.764000e-3,1.02e-1,
1.766000e-3,1.02e-1,
1.768000e-3,1.02e-1,
1.770000e-3,1.00e-1,
1.772000e-3,1.00e-1,
1.774000e-3,1.00e-1,
1.776000e-3,1.00e-1,
1.778000e-3,1.02e-1,
1.780000e-3,1.02e-1,
1.782000e-3,1.02e-1,
1.784000e-3,1.02e-1,
1.786000e-3,1.02e-1,
1.788000e-3,1.02e-1,
1.790000e-3,1.06e-1,
1.792000e-3,1.06e-1,
1.794000e-3,1.04e-1,
1.796000e-3,1.04e-1,
1.798000e-3,1.04e-1,
1.800000e-3,1.04e-1,
1.802000e-3,1.04e-1,
1.804000e-3,1.04e-1,
1.806000e-3,1.02e-1,
1.808000e-3,1.02e-1,
1.810000e-3,1.02e-1,
1.812000e-3,1.02e-1,
1.814000e-3,1.04e-1,
1.816000e-3,1.04e-1,
1.818000e-3,1.04e-1,
1.820000e-3,1.04e-1,
1.822000e-3,1.04e-1,
1.824000e-3,1.04e-1,
1.826000e-3,1.04e-1,
1.828000e-3,1.04e-1,
1.830000e-3,1.04e-1,
1.832000e-3,1.04e-1,
1.834000e-3,1.08e-1,
1.836000e-3,1.08e-1,
1.838000e-3,1.06e-1,
1.840000e-3,1.06e-1,
1.842000e-3,1.06e-1,
1.844000e-3,1.06e-1,
1.846000e-3,1.06e-1,
1.848000e-3,1.06e-1,
1.850000e-3,1.06e-1,
1.852000e-3,1.06e-1,
1.854000e-3,1.02e-1,
1.856000e-3,1.02e-1,
1.858000e-3,1.02e-1,
1.860000e-3,1.02e-1,
1.862000e-3,1.02e-1,
1.864000e-3,1.02e-1,
1.866000e-3,1.02e-1,
1.868000e-3,1.02e-1,
1.870000e-3,1.02e-1,
