New Data/Spectrum (widest)/A0035CH1.CSV

col 1,col 2,,,Memory Length,4000
-3.94E-03,2.00E-02,,,Trigger Level,7.40E+02
-3.94E-03,2.00E-02,,,Source,CH1
-3.94E-03,2.00E-02,,,Probe,1.0X
-3.93E-03,2.40E-02,,,Vertical Units,V
-3.93E-03,2.40E-02,,,Vertical Scale,5.00E-02
-3.93E-03,2.60E-02,,,Vertical Position,-5.20E-02
-3.93E-03,2.60E-02,,,Horizontal Units,S
-3.93E-03,2.80E-02,,,Horizontal Scale,5.00E-04
-3.92E-03,2.80E-02,,,Horizontal Position,6.00E-05
-3.92E-03,2.80E-02,,,Horizontal Mode,Main
-3.92E-03,2.80E-02,,,Sampling Period,2.00E-06
-3.92E-03,3.00E-02,,,Firmware,V1.14
-3.92E-03,3.00E-02,,,Time, 
-3.91E-03,3.40E-02,,,Mode,Detail
-3.91E-03,3.40E-02,,,Waveform Data,
-3.91E-03,3.40E-02,,,,
-3.91E-03,3.40E-02,,,,
-3.91E-03,4.00E-02,,,,
-3.90E-03,4.00E-02,,,,
-3.90E-03,4.20E-02,,,,
-3.90E-03,4.20E-02,,,,
-3.90E-03,4.60E-02,,,,
-3.90E-03,4.60E-02,,,,
-3.89E-03,4.60E-02,,,,
-3.89E-03,4.60E-02,,,,
-3.89E-03,5.00E-02,,,,
-3.89E-03,5.00E-02,,,,
-3.89E-03,5.40E-02,,,,
-3.88E-03,5.40E-02,,,,
-3.88E-03,5.40E-02,,,,
-3.88E-03,5.40E-02,,,,
-3.88E-03,5.60E-02,,,,
-3.88E-03,5.60E-02,,,,
-3.87E-03,6.20E-02,,,,
-3.87E-03,6.20E-02,,,,
-3.87E-03,6.40E-02,,,,
-3.87E-03,6.40E-02,,,,
-3.87E-03,6.40E-02,,,,
-3.86E-03,6.40E-02,,,,
-3.86E-03,7.00E-02,,,,
-3.86E-03,7.00E-02,,,,
-3.86E-03,7.20E-02,,,,
-3.86E-03,7.20E-02,,,,
-3.85E-03,7.40E-02,,,,
-3.85E-03,7.40E-02,,,,
-3.85E-03,7.60E-02,,,,
-3.85E-03,7.60E-02,,,,
-3.85E-03,8.00E-02,,,,
-3.84E-03,8.00E-02,,,,
-3.84E-03,8.40E-02,,,,
-3.84E-03,8.40E-02,,,,
-3.84E-03,8.60E-02,,,,
-3.84E-03,8.60E-02,,,,
-3.83E-03,9.20E-02,,,,
-3.83E-03,9.20E-02,,,,
-3.83E-03,9.20E-02,,,,
-3.83E-03,9.20E-02,,,,
-3.83E-03,9.40E-02,,,,
-3.82E-03,9.40E-02,,,,
-3.82E-03,9.80E-02,,,,
-3.82E-03,9.80E-02,,,,
-3.82E-03,9.80E-02,,,,
-3.82E-03,9.80E-02,,,,
-3.81E-03,1.02E-01,,,,
-3.81E-03,1.02E-01,,,,
-3.81E-03,1.06E-01,,,,
-3.81E-03,1.06E-01,,,,
-3.81E-03,1.06E-01,,,,
-3.80E-03,1.06E-01,,,,
-3.80E-03,1.12E-01,,,,
-3.80E-03,1.12E-01,,,,
-3.80E-03,1.12E-01,,,,
-3.80E-03,1.12E-01,,,,
-3.79E-03,1.16E-01,,,,
-3.79E-03,1.16E-01,,,,
-3.79E-03,1.18E-01,,,,
-3.79E-03,1.18E-01,,,,
-3.79E-03,1.18E-01,,,,
-3.78E-03,1.18E-01,,,,
-3.78E-03,1.20E-01,,,,
-3.78E-03,1.20E-01,,,,
-3.78E-03,1.22E-01,,,,
-3.78E-03,1.22E-01,,,,
-3.77E-03,1.22E-01,,,,
-3.77E-03,1.22E-01,,,,
-3.77E-03,1.20E-01,,,,
-3.77E-03,1.20E-01,,,,
-3.77E-03,1.22E-01,,,,
-3.76E-03,1.22E-01,,,,
-3.76E-03,1.20E-01,,,,
-3.76E-03,1.20E-01,,,,
-3.76E-03,1.20E-01,,,,
-3.76E-03,1.20E-01,,,,
-3.75E-03,1.18E-01,,,,
-3.75E-03,1.18E-01,,,,
-3.75E-03,1.16E-01,,,,
-3.75E-03,1.16E-01,,,,
-3.75E-03,1.10E-01,,,,
-3.74E-03,1.10E-01,,,,
-3.74E-03,1.04E-01,,,,
-3.74E-03,1.04E-01,,,,
-3.74E-03,1.00E-01,,,,
-3.74E-03,1.00E-01,,,,
-3.73E-03,9.40E-02,,,,
-3.73E-03,9.40E-02,,,,
-3.73E-03,9.00E-02,,,,
-3.73E-03,9.00E-02,,,,
-3.73E-03,8.80E-02,,,,
-3.72E-03,8.80E-02,,,,
-3.72E-03,8.80E-02,,,,
-3.72E-03,8.80E-02,,,,
-3.72E-03,8.40E-02,,,,
-3.72E-03,8.40E-02,,,,
-3.71E-03,8.60E-02,,,,
-3.71E-03,8.60E-02,,,,
-3.71E-03,8.60E-02,,,,
-3.71E-03,8.60E-02,,,,
-3.71E-03,8.80E-02,,,,
-3.70E-03,8.80E-02,,,,
-3.70E-03,9.20E-02,,,,
-3.70E-03,9.20E-02,,,,
-3.70E-03,9.40E-02,,,,
-3.70E-03,9.40E-02,,,,
-3.69E-03,9.60E-02,,,,
-3.69E-03,9.60E-02,,,,
-3.69E-03,1.00E-01,,,,
-3.69E-03,1.00E-01,,,,
-3.69E-03,1.02E-01,,,,
-3.68E-03,1.02E-01,,,,
-3.68E-03,1.04E-01,,,,
-3.68E-03,1.04E-01,,,,
-3.68E-03,1.06E-01,,,,
-3.68E-03,1.06E-01,,,,
-3.67E-03,1.06E-01,,,,
-3.67E-03,1.06E-01,,,,
-3.67E-03,1.06E-01,,,,
-3.67E-03,1.06E-01,,,,
-3.67E-03,1.08E-01,,,,
-3.66E-03,1.08E-01,,,,
-3.66E-03,1.08E-01,,,,
-3.66E-03,1.08E-01,,,,
-3.66E-03,1.08E-01,,,,
-3.66E-03,1.08E-01,,,,
-3.65E-03,1.08E-01,,,,
-3.65E-03,1.08E-01,,,,
-3.65E-03,1.08E-01,,,,
-3.65E-03,1.08E-01,,,,
-3.65E-03,1.06E-01,,,,
-3.64E-03,1.06E-01,,,,
-3.64E-03,1.06E-01,,,,
-3.64E-03,1.06E-01,,,,
-3.64E-03,1.02E-01,,,,
-3.64E-03,1.02E-01,,,,
-3.63E-03,1.02E-01,,,,
-3.63E-03,1.02E-01,,,,
-3.63E-03,9.80E-02,,,,
-3.63E-03,9.80E-02,,,,
-3.63E-03,9.80E-02,,,,
-3.62E-03,9.80E-02,,,,
-3.62E-03,9.60E-02,,,,
-3.62E-03,9.60E-02,,,,
-3.62E-03,9.20E-02,,,,
-3.62E-03,9.20E-02,,,,
-3.61E-03,9.20E-02,,,,
-3.61E-03,9.20E-02,,,,
-3.61E-03,8.80E-02,,,,
-3.61E-03,8.80E-02,,,,
-3.61E-03,8.60E-02,,,,
-3.60E-03,8.60E-02,,,,
-3.60E-03,8.40E-02,,,,
-3.60E-03,8.40E-02,,,,
-3.60E-03,8.00E-02,,,,
-3.60E-03,8.00E-02,,,,
-3.59E-03,7.80E-02,,,,
-3.59E-03,7.80E-02,,,,
-3.59E-03,7.80E-02,,,,
-3.59E-03,7.80E-02,,,,
-3.59E-03,7.20E-02,,,,
-3.58E-03,7.20E-02,,,,
-3.58E-03,7.00E-02,,,,
-3.58E-03,7.00E-02,,,,
-3.58E-03,6.60E-02,,,,
-3.58E-03,6.60E-02,,,,
-3.57E-03,6.40E-02,,,,
-3.57E-03,6.40E-02,,,,
-3.57E-03,6.00E-02,,,,
-3.57E-03,6.00E-02,,,,
-3.57E-03,5.80E-02,,,,
-3.56E-03,5.80E-02,,,,
-3.56E-03,5.40E-02,,,,
-3.56E-03,5.40E-02,,,,
-3.56E-03,5.40E-02,,,,
-3.56E-03,5.40E-02,,,,
-3.55E-03,5.00E-02,,,,
-3.55E-03,5.00E-02,,,,
-3.55E-03,5.00E-02,,,,
-3.55E-03,5.00E-02,,,,
-3.55E-03,4.60E-02,,,,
-3.54E-03,4.60E-02,,,,
-3.54E-03,4.40E-02,,,,
-3.54E-03,4.40E-02,,,,
-3.54E-03,4.00E-02,,,,
-3.54E-03,4.00E-02,,,,
-3.53E-03,3.60E-02,,,,
-3.53E-03,3.60E-02,,,,
-3.53E-03,3.40E-02,,,,
-3.53E-03,3.40E-02,,,,
-3.53E-03,3.20E-02,,,,
-3.52E-03,3.20E-02,,,,
-3.52E-03,3.00E-02,,,,
-3.52E-03,3.00E-02,,,,
-3.52E-03,2.60E-02,,,,
-3.52E-03,2.60E-02,,,,
-3.51E-03,2.40E-02,,,,
-3.51E-03,2.40E-02,,,,
-3.51E-03,2.40E-02,,,,
-3.51E-03,2.40E-02,,,,
-3.51E-03,2.20E-02,,,,
-3.50E-03,2.20E-02,,,,
-3.50E-03,2.00E-02,,,,
-3.50E-03,2.00E-02,,,,
-3.50E-03,2.00E-02,,,,
-3.50E-03,2.00E-02,,,,
-3.49E-03,1.60E-02,,,,
-3.49E-03,1.60E-02,,,,
-3.49E-03,1.40E-02,,,,
-3.49E-03,1.40E-02,,,,
-3.49E-03,1.20E-02,,,,
-3.48E-03,1.20E-02,,,,
-3.48E-03,1.20E-02,,,,
-3.48E-03,1.20E-02,,,,
-3.48E-03,1.00E-02,,,,
-3.48E-03,1.00E-02,,,,
-3.47E-03,8.00E-03,,,,
-3.47E-03,8.00E-03,,,,
-3.47E-03,6.00E-03,,,,
-3.47E-03,6.00E-03,,,,
-3.47E-03,8.00E-03,,,,
-3.46E-03,8.00E-03,,,,
-3.46E-03,4.00E-03,,,,
-3.46E-03,4.00E-03,,,,
-3.46E-03,4.00E-03,,,,
-3.46E-03,4.00E-03,,,,
-3.45E-03,4.00E-03,,,,
-3.45E-03,4.00E-03,,,,
-3.45E-03,2.00E-03,,,,
-3.45E-03,2.00E-03,,,,
-3.45E-03,0.00E+00,,,,
-3.44E-03,0.00E+00,,,,
-3.44E-03,0.00E+00,,,,
-3.44E-03,0.00E+00,,,,
-3.44E-03,0.00E+00,,,,
-3.44E-03,0.00E+00,,,,
-3.43E-03,0.00E+00,,,,
-3.43E-03,0.00E+00,,,,
-3.43E-03,0.00E+00,,,,
-3.43E-03,0.00E+00,,,,
-3.43E-03,-2.00E-03,,,,
-3.42E-03,-2.00E-03,,,,
-3.42E-03,-4.00E-03,,,,
-3.42E-03,-4.00E-03,,,,
-3.42E-03,-2.00E-03,,,,
-3.42E-03,-2.00E-03,,,,
-3.41E-03,-8.00E-03,,,,
-3.41E-03,-8.00E-03,,,,
-3.41E-03,-6.00E-03,,,,
-3.41E-03,-6.00E-03,,,,
-3.41E-03,-6.00E-03,,,,
-3.40E-03,-6.00E-03,,,,
-3.40E-03,-8.00E-03,,,,
-3.40E-03,-8.00E-03,,,,
-3.40E-03,-6.00E-03,,,,
-3.40E-03,-6.00E-03,,,,
-3.39E-03,-6.00E-03,,,,
-3.39E-03,-6.00E-03,,,,
-3.39E-03,-6.00E-03,,,,
-3.39E-03,-6.00E-03,,,,
-3.39E-03,-6.00E-03,,,,
-3.38E-03,-6.00E-03,,,,
-3.38E-03,-6.00E-03,,,,
-3.38E-03,-6.00E-03,,,,
-3.38E-03,-6.00E-03,,,,
-3.38E-03,-6.00E-03,,,,
-3.37E-03,-8.00E-03,,,,
-3.37E-03,-8.00E-03,,,,
-3.37E-03,-8.00E-03,,,,
-3.37E-03,-8.00E-03,,,,
-3.37E-03,-6.00E-03,,,,
-3.36E-03,-6.00E-03,,,,
-3.36E-03,-8.00E-03,,,,
-3.36E-03,-8.00E-03,,,,
-3.36E-03,-6.00E-03,,,,
-3.36E-03,-6.00E-03,,,,
-3.35E-03,-6.00E-03,,,,
-3.35E-03,-6.00E-03,,,,
-3.35E-03,-8.00E-03,,,,
-3.35E-03,-8.00E-03,,,,
-3.35E-03,-8.00E-03,,,,
-3.34E-03,-8.00E-03,,,,
-3.34E-03,-8.00E-03,,,,
-3.34E-03,-8.00E-03,,,,
-3.34E-03,-8.00E-03,,,,
-3.34E-03,-8.00E-03,,,,
-3.33E-03,-8.00E-03,,,,
-3.33E-03,-8.00E-03,,,,
-3.33E-03,-1.00E-02,,,,
-3.33E-03,-1.00E-02,,,,
-3.33E-03,-1.00E-02,,,,
-3.32E-03,-1.00E-02,,,,
-3.32E-03,-6.00E-03,,,,
-3.32E-03,-6.00E-03,,,,
-3.32E-03,-1.00E-02,,,,
-3.32E-03,-1.00E-02,,,,
-3.31E-03,-8.00E-03,,,,
-3.31E-03,-8.00E-03,,,,
-3.31E-03,-8.00E-03,,,,
-3.31E-03,-8.00E-03,,,,
-3.31E-03,-1.00E-02,,,,
-3.30E-03,-1.00E-02,,,,
-3.30E-03,-8.00E-03,,,,
-3.30E-03,-8.00E-03,,,,
-3.30E-03,-8.00E-03,,,,
-3.30E-03,-8.00E-03,,,,
-3.29E-03,-8.00E-03,,,,
-3.29E-03,-8.00E-03,,,,
-3.29E-03,-8.00E-03,,,,
-3.29E-03,-8.00E-03,,,,
-3.29E-03,-8.00E-03,,,,
-3.28E-03,-8.00E-03,,,,
-3.28E-03,-6.00E-03,,,,
-3.28E-03,-6.00E-03,,,,
-3.28E-03,-8.00E-03,,,,
-3.28E-03,-8.00E-03,,,,
-3.27E-03,-8.00E-03,,,,
-3.27E-03,-8.00E-03,,,,
-3.27E-03,-1.00E-02,,,,
-3.27E-03,-1.00E-02,,,,
-3.27E-03,-6.00E-03,,,,
-3.26E-03,-6.00E-03,,,,
-3.26E-03,-6.00E-03,,,,
-3.26E-03,-6.00E-03,,,,
-3.26E-03,-8.00E-03,,,,
-3.26E-03,-8.00E-03,,,,
-3.25E-03,-6.00E-03,,,,
-3.25E-03,-6.00E-03,,,,
-3.25E-03,-6.00E-03,,,,
-3.25E-03,-6.00E-03,,,,
-3.25E-03,-8.00E-03,,,,
-3.24E-03,-8.00E-03,,,,
-3.24E-03,-8.00E-03,,,,
-3.24E-03,-8.00E-03,,,,
-3.24E-03,-8.00E-03,,,,
-3.24E-03,-8.00E-03,,,,
-3.23E-03,-6.00E-03,,,,
-3.23E-03,-6.00E-03,,,,
-3.23E-03,-8.00E-03,,,,
-3.23E-03,-8.00E-03,,,,
-3.23E-03,-4.00E-03,,,,
-3.22E-03,-4.00E-03,,,,
-3.22E-03,-6.00E-03,,,,
-3.22E-03,-6.00E-03,,,,
-3.22E-03,-4.00E-03,,,,
-3.22E-03,-4.00E-03,,,,
-3.21E-03,-4.00E-03,,,,
-3.21E-03,-4.00E-03,,,,
-3.21E-03,-8.00E-03,,,,
-3.21E-03,-8.00E-03,,,,
-3.21E-03,-4.00E-03,,,,
-3.20E-03,-4.00E-03,,,,
-3.20E-03,-4.00E-03,,,,
-3.20E-03,-4.00E-03,,,,
-3.20E-03,-4.00E-03,,,,
-3.20E-03,-4.00E-03,,,,
-3.19E-03,-6.00E-03,,,,
-3.19E-03,-6.00E-03,,,,
-3.19E-03,-4.00E-03,,,,
-3.19E-03,-4.00E-03,,,,
-3.19E-03,-6.00E-03,,,,
-3.18E-03,-6.00E-03,,,,
-3.18E-03,-4.00E-03,,,,
-3.18E-03,-4.00E-03,,,,
-3.18E-03,-4.00E-03,,,,
-3.18E-03,-4.00E-03,,,,
-3.17E-03,-4.00E-03,,,,
-3.17E-03,-4.00E-03,,,,
-3.17E-03,-6.00E-03,,,,
-3.17E-03,-6.00E-03,,,,
-3.17E-03,-6.00E-03,,,,
-3.16E-03,-6.00E-03,,,,
-3.16E-03,-2.00E-03,,,,
-3.16E-03,-2.00E-03,,,,
-3.16E-03,-6.00E-03,,,,
-3.16E-03,-6.00E-03,,,,
-3.15E-03,-6.00E-03,,,,
-3.15E-03,-6.00E-03,,,,
-3.15E-03,-6.00E-03,,,,
-3.15E-03,-6.00E-03,,,,
-3.15E-03,-4.00E-03,,,,
-3.14E-03,-4.00E-03,,,,
-3.14E-03,-6.00E-03,,,,
-3.14E-03,-6.00E-03,,,,
-3.14E-03,-4.00E-03,,,,
-3.14E-03,-4.00E-03,,,,
-3.13E-03,-4.00E-03,,,,
-3.13E-03,-4.00E-03,,,,
-3.13E-03,-6.00E-03,,,,
-3.13E-03,-6.00E-03,,,,
-3.13E-03,-2.00E-03,,,,
-3.12E-03,-2.00E-03,,,,
-3.12E-03,-2.00E-03,,,,
-3.12E-03,-2.00E-03,,,,
-3.12E-03,-6.00E-03,,,,
-3.12E-03,-6.00E-03,,,,
-3.11E-03,-4.00E-03,,,,
-3.11E-03,-4.00E-03,,,,
-3.11E-03,-6.00E-03,,,,
-3.11E-03,-6.00E-03,,,,
-3.11E-03,-4.00E-03,,,,
-3.10E-03,-4.00E-03,,,,
-3.10E-03,-4.00E-03,,,,
-3.10E-03,-4.00E-03,,,,
-3.10E-03,-2.00E-03,,,,
-3.10E-03,-2.00E-03,,,,
-3.09E-03,-4.00E-03,,,,
-3.09E-03,-4.00E-03,,,,
-3.09E-03,-4.00E-03,,,,
-3.09E-03,-4.00E-03,,,,
-3.09E-03,-4.00E-03,,,,
-3.08E-03,-4.00E-03,,,,
-3.08E-03,-4.00E-03,,,,
-3.08E-03,-4.00E-03,,,,
-3.08E-03,-2.00E-03,,,,
-3.08E-03,-2.00E-03,,,,
-3.07E-03,0.00E+00,,,,
-3.07E-03,0.00E+00,,,,
-3.07E-03,-2.00E-03,,,,
-3.07E-03,-2.00E-03,,,,
-3.07E-03,-2.00E-03,,,,
-3.06E-03,-2.00E-03,,,,
-3.06E-03,-2.00E-03,,,,
-3.06E-03,-2.00E-03,,,,
-3.06E-03,-2.00E-03,,,,
-3.06E-03,-2.00E-03,,,,
-3.05E-03,-2.00E-03,,,,
-3.05E-03,-2.00E-03,,,,
-3.05E-03,-2.00E-03,,,,
-3.05E-03,-2.00E-03,,,,
-3.05E-03,-2.00E-03,,,,
-3.04E-03,-2.00E-03,,,,
-3.04E-03,-2.00E-03,,,,
-3.04E-03,-2.00E-03,,,,
-3.04E-03,0.00E+00,,,,
-3.04E-03,0.00E+00,,,,
-3.03E-03,-2.00E-03,,,,
-3.03E-03,-2.00E-03,,,,
-3.03E-03,-2.00E-03,,,,
-3.03E-03,-2.00E-03,,,,
-3.03E-03,-4.00E-03,,,,
-3.02E-03,-4.00E-03,,,,
-3.02E-03,-2.00E-03,,,,
-3.02E-03,-2.00E-03,,,,
-3.02E-03,-4.00E-03,,,,
-3.02E-03,-4.00E-03,,,,
-3.01E-03,0.00E+00,,,,
-3.01E-03,0.00E+00,,,,
-3.01E-03,-4.00E-03,,,,
-3.01E-03,-4.00E-03,,,,
-3.01E-03,-4.00E-03,,,,
-3.00E-03,-4.00E-03,,,,
-3.00E-03,-2.00E-03,,,,
-3.00E-03,-2.00E-03,,,,
-3.00E-03,-2.00E-03,,,,
-3.00E-03,-2.00E-03,,,,
-2.99E-03,-4.00E-03,,,,
-2.99E-03,-4.00E-03,,,,
-2.99E-03,-2.00E-03,,,,
-2.99E-03,-2.00E-03,,,,
-2.99E-03,-2.00E-03,,,,
-2.98E-03,-2.00E-03,,,,
-2.98E-03,-2.00E-03,,,,
-2.98E-03,-2.00E-03,,,,
-2.98E-03,-6.00E-03,,,,
-2.98E-03,-6.00E-03,,,,
-2.97E-03,-4.00E-03,,,,
-2.97E-03,-4.00E-03,,,,
-2.97E-03,0.00E+00,,,,
-2.97E-03,0.00E+00,,,,
-2.97E-03,2.00E-03,,,,
-2.96E-03,2.00E-03,,,,
-2.96E-03,-2.00E-03,,,,
-2.96E-03,-2.00E-03,,,,
-2.96E-03,0.00E+00,,,,
-2.96E-03,0.00E+00,,,,
-2.95E-03,-2.00E-03,,,,
-2.95E-03,-2.00E-03,,,,
-2.95E-03,0.00E+00,,,,
-2.95E-03,0.00E+00,,,,
-2.95E-03,2.00E-03,,,,
-2.94E-03,2.00E-03,,,,
-2.94E-03,0.00E+00,,,,
-2.94E-03,0.00E+00,,,,
-2.94E-03,0.00E+00,,,,
-2.94E-03,0.00E+00,,,,
-2.93E-03,0.00E+00,,,,
-2.93E-03,0.00E+00,,,,
-2.93E-03,0.00E+00,,,,
-2.93E-03,0.00E+00,,,,
-2.93E-03,0.00E+00,,,,
-2.92E-03,0.00E+00,,,,
-2.92E-03,2.00E-03,,,,
-2.92E-03,2.00E-03,,,,
-2.92E-03,0.00E+00,,,,
-2.92E-03,0.00E+00,,,,
-2.91E-03,-2.00E-03,,,,
-2.91E-03,-2.00E-03,,,,
-2.91E-03,0.00E+00,,,,
-2.91E-03,0.00E+00,,,,
-2.91E-03,0.00E+00,,,,
-2.90E-03,0.00E+00,,,,
-2.90E-03,0.00E+00,,,,
-2.90E-03,0.00E+00,,,,
-2.90E-03,0.00E+00,,,,
-2.90E-03,0.00E+00,,,,
-2.89E-03,0.00E+00,,,,
-2.89E-03,0.00E+00,,,,
-2.89E-03,0.00E+00,,,,
-2.89E-03,0.00E+00,,,,
-2.89E-03,2.00E-03,,,,
-2.88E-03,2.00E-03,,,,
-2.88E-03,0.00E+00,,,,
-2.88E-03,0.00E+00,,,,
-2.88E-03,0.00E+00,,,,
-2.88E-03,0.00E+00,,,,
-2.87E-03,2.00E-03,,,,
-2.87E-03,2.00E-03,,,,
-2.87E-03,0.00E+00,,,,
-2.87E-03,0.00E+00,,,,
-2.87E-03,2.00E-03,,,,
-2.86E-03,2.00E-03,,,,
-2.86E-03,0.00E+00,,,,
-2.86E-03,0.00E+00,,,,
-2.86E-03,2.00E-03,,,,
-2.86E-03,2.00E-03,,,,
-2.85E-03,2.00E-03,,,,
-2.85E-03,2.00E-03,,,,
-2.85E-03,0.00E+00,,,,
-2.85E-03,0.00E+00,,,,
-2.85E-03,2.00E-03,,,,
-2.84E-03,2.00E-03,,,,
-2.84E-03,2.00E-03,,,,
-2.84E-03,2.00E-03,,,,
-2.84E-03,2.00E-03,,,,
-2.84E-03,2.00E-03,,,,
-2.83E-03,2.00E-03,,,,
-2.83E-03,2.00E-03,,,,
-2.83E-03,2.00E-03,,,,
-2.83E-03,2.00E-03,,,,
-2.83E-03,2.00E-03,,,,
-2.82E-03,2.00E-03,,,,
-2.82E-03,0.00E+00,,,,
-2.82E-03,0.00E+00,,,,
-2.82E-03,2.00E-03,,,,
-2.82E-03,2.00E-03,,,,
-2.81E-03,2.00E-03,,,,
-2.81E-03,2.00E-03,,,,
-2.81E-03,4.00E-03,,,,
-2.81E-03,4.00E-03,,,,
-2.81E-03,4.00E-03,,,,
-2.80E-03,4.00E-03,,,,
-2.80E-03,2.00E-03,,,,
-2.80E-03,2.00E-03,,,,
-2.80E-03,2.00E-03,,,,
-2.80E-03,2.00E-03,,,,
-2.79E-03,4.00E-03,,,,
-2.79E-03,4.00E-03,,,,
-2.79E-03,4.00E-03,,,,
-2.79E-03,4.00E-03,,,,
-2.79E-03,2.00E-03,,,,
-2.78E-03,2.00E-03,,,,
-2.78E-03,4.00E-03,,,,
-2.78E-03,4.00E-03,,,,
-2.78E-03,2.00E-03,,,,
-2.78E-03,2.00E-03,,,,
-2.77E-03,4.00E-03,,,,
-2.77E-03,4.00E-03,,,,
-2.77E-03,6.00E-03,,,,
-2.77E-03,6.00E-03,,,,
-2.77E-03,8.00E-03,,,,
-2.76E-03,8.00E-03,,,,
-2.76E-03,4.00E-03,,,,
-2.76E-03,4.00E-03,,,,
-2.76E-03,6.00E-03,,,,
-2.76E-03,6.00E-03,,,,
-2.75E-03,6.00E-03,,,,
-2.75E-03,6.00E-03,,,,
-2.75E-03,6.00E-03,,,,
-2.75E-03,6.00E-03,,,,
-2.75E-03,6.00E-03,,,,
-2.74E-03,6.00E-03,,,,
-2.74E-03,6.00E-03,,,,
-2.74E-03,6.00E-03,,,,
-2.74E-03,6.00E-03,,,,
-2.74E-03,6.00E-03,,,,
-2.73E-03,8.00E-03,,,,
-2.73E-03,8.00E-03,,,,
-2.73E-03,8.00E-03,,,,
-2.73E-03,8.00E-03,,,,
-2.73E-03,8.00E-03,,,,
-2.72E-03,8.00E-03,,,,
-2.72E-03,8.00E-03,,,,
-2.72E-03,8.00E-03,,,,
-2.72E-03,8.00E-03,,,,
-2.72E-03,8.00E-03,,,,
-2.71E-03,1.00E-02,,,,
-2.71E-03,1.00E-02,,,,
-2.71E-03,1.20E-02,,,,
-2.71E-03,1.20E-02,,,,
-2.71E-03,1.20E-02,,,,
-2.70E-03,1.20E-02,,,,
-2.70E-03,1.20E-02,,,,
-2.70E-03,1.20E-02,,,,
-2.70E-03,1.20E-02,,,,
-2.70E-03,1.20E-02,,,,
-2.69E-03,1.20E-02,,,,
-2.69E-03,1.20E-02,,,,
-2.69E-03,1.20E-02,,,,
-2.69E-03,1.20E-02,,,,
-2.69E-03,1.40E-02,,,,
-2.68E-03,1.40E-02,,,,
-2.68E-03,1.40E-02,,,,
-2.68E-03,1.40E-02,,,,
-2.68E-03,1.20E-02,,,,
-2.68E-03,1.20E-02,,,,
-2.67E-03,1.40E-02,,,,
-2.67E-03,1.40E-02,,,,
-2.67E-03,1.40E-02,,,,
-2.67E-03,1.40E-02,,,,
-2.67E-03,1.80E-02,,,,
-2.66E-03,1.80E-02,,,,
-2.66E-03,1.60E-02,,,,
-2.66E-03,1.60E-02,,,,
-2.66E-03,1.80E-02,,,,
-2.66E-03,1.80E-02,,,,
-2.65E-03,1.80E-02,,,,
-2.65E-03,1.80E-02,,,,
-2.65E-03,1.80E-02,,,,
-2.65E-03,1.80E-02,,,,
-2.65E-03,2.00E-02,,,,
-2.64E-03,2.00E-02,,,,
-2.64E-03,2.00E-02,,,,
-2.64E-03,2.00E-02,,,,
-2.64E-03,2.20E-02,,,,
-2.64E-03,2.20E-02,,,,
-2.63E-03,2.40E-02,,,,
-2.63E-03,2.40E-02,,,,
-2.63E-03,2.40E-02,,,,
-2.63E-03,2.40E-02,,,,
-2.63E-03,2.40E-02,,,,
-2.62E-03,2.40E-02,,,,
-2.62E-03,2.60E-02,,,,
-2.62E-03,2.60E-02,,,,
-2.62E-03,2.80E-02,,,,
-2.62E-03,2.80E-02,,,,
-2.61E-03,2.60E-02,,,,
-2.61E-03,2.60E-02,,,,
-2.61E-03,2.80E-02,,,,
-2.61E-03,2.80E-02,,,,
-2.61E-03,3.00E-02,,,,
-2.60E-03,3.00E-02,,,,
-2.60E-03,3.00E-02,,,,
-2.60E-03,3.00E-02,,,,
-2.60E-03,3.20E-02,,,,
-2.60E-03,3.20E-02,,,,
-2.59E-03,3.40E-02,,,,
-2.59E-03,3.40E-02,,,,
-2.59E-03,3.60E-02,,,,
-2.59E-03,3.60E-02,,,,
-2.59E-03,3.40E-02,,,,
-2.58E-03,3.40E-02,,,,
-2.58E-03,3.60E-02,,,,
-2.58E-03,3.60E-02,,,,
-2.58E-03,3.80E-02,,,,
-2.58E-03,3.80E-02,,,,
-2.57E-03,3.60E-02,,,,
-2.57E-03,3.60E-02,,,,
-2.57E-03,4.00E-02,,,,
-2.57E-03,4.00E-02,,,,
-2.57E-03,4.00E-02,,,,
-2.56E-03,4.00E-02,,,,
-2.56E-03,4.00E-02,,,,
-2.56E-03,4.00E-02,,,,
-2.56E-03,4.20E-02,,,,
-2.56E-03,4.20E-02,,,,
-2.55E-03,4.60E-02,,,,
-2.55E-03,4.60E-02,,,,
-2.55E-03,4.40E-02,,,,
-2.55E-03,4.40E-02,,,,
-2.55E-03,4.40E-02,,,,
-2.54E-03,4.40E-02,,,,
-2.54E-03,4.40E-02,,,,
-2.54E-03,4.40E-02,,,,
-2.54E-03,4.60E-02,,,,
-2.54E-03,4.60E-02,,,,
-2.53E-03,4.80E-02,,,,
-2.53E-03,4.80E-02,,,,
-2.53E-03,4.80E-02,,,,
-2.53E-03,4.80E-02,,,,
-2.53E-03,4.60E-02,,,,
-2.52E-03,4.60E-02,,,,
-2.52E-03,4.60E-02,,,,
-2.52E-03,4.60E-02,,,,
-2.52E-03,5.00E-02,,,,
-2.52E-03,5.00E-02,,,,
-2.51E-03,5.20E-02,,,,
-2.51E-03,5.20E-02,,,,
-2.51E-03,5.20E-02,,,,
-2.51E-03,5.20E-02,,,,
-2.51E-03,5.20E-02,,,,
-2.50E-03,5.20E-02,,,,
-2.50E-03,5.00E-02,,,,
-2.50E-03,5.00E-02,,,,
-2.50E-03,5.20E-02,,,,
-2.50E-03,5.20E-02,,,,
-2.49E-03,4.80E-02,,,,
-2.49E-03,4.80E-02,,,,
-2.49E-03,4.60E-02,,,,
-2.49E-03,4.60E-02,,,,
-2.49E-03,4.80E-02,,,,
-2.48E-03,4.80E-02,,,,
-2.48E-03,4.80E-02,,,,
-2.48E-03,4.80E-02,,,,
-2.48E-03,4.80E-02,,,,
-2.48E-03,4.80E-02,,,,
-2.47E-03,4.80E-02,,,,
-2.47E-03,4.80E-02,,,,
-2.47E-03,4.80E-02,,,,
-2.47E-03,4.80E-02,,,,
-2.47E-03,4.40E-02,,,,
-2.46E-03,4.40E-02,,,,
-2.46E-03,4.60E-02,,,,
-2.46E-03,4.60E-02,,,,
-2.46E-03,4.40E-02,,,,
-2.46E-03,4.40E-02,,,,
-2.45E-03,4.40E-02,,,,
-2.45E-03,4.40E-02,,,,
-2.45E-03,4.60E-02,,,,
-2.45E-03,4.60E-02,,,,
-2.45E-03,4.20E-02,,,,
-2.44E-03,4.20E-02,,,,
-2.44E-03,4.20E-02,,,,
-2.44E-03,4.20E-02,,,,
-2.44E-03,4.20E-02,,,,
-2.44E-03,4.20E-02,,,,
-2.43E-03,4.40E-02,,,,
-2.43E-03,4.40E-02,,,,
-2.43E-03,4.80E-02,,,,
-2.43E-03,4.80E-02,,,,
-2.43E-03,4.40E-02,,,,
-2.42E-03,4.40E-02,,,,
-2.42E-03,4.40E-02,,,,
-2.42E-03,4.40E-02,,,,
-2.42E-03,4.60E-02,,,,
-2.42E-03,4.60E-02,,,,
-2.41E-03,4.20E-02,,,,
-2.41E-03,4.20E-02,,,,
-2.41E-03,4.40E-02,,,,
-2.41E-03,4.40E-02,,,,
-2.41E-03,4.20E-02,,,,
-2.40E-03,4.20E-02,,,,
-2.40E-03,4.40E-02,,,,
-2.40E-03,4.40E-02,,,,
-2.40E-03,4.40E-02,,,,
-2.40E-03,4.40E-02,,,,
-2.39E-03,4.20E-02,,,,
-2.39E-03,4.20E-02,,,,
-2.39E-03,4.20E-02,,,,
-2.39E-03,4.20E-02,,,,
-2.39E-03,4.20E-02,,,,
-2.38E-03,4.20E-02,,,,
-2.38E-03,4.20E-02,,,,
-2.38E-03,4.20E-02,,,,
-2.38E-03,4.20E-02,,,,
-2.38E-03,4.20E-02,,,,
-2.37E-03,4.20E-02,,,,
-2.37E-03,4.20E-02,,,,
-2.37E-03,4.40E-02,,,,
-2.37E-03,4.40E-02,,,,
-2.37E-03,4.20E-02,,,,
-2.36E-03,4.20E-02,,,,
-2.36E-03,4.20E-02,,,,
-2.36E-03,4.20E-02,,,,
-2.36E-03,4.40E-02,,,,
-2.36E-03,4.40E-02,,,,
-2.35E-03,4.20E-02,,,,
-2.35E-03,4.20E-02,,,,
-2.35E-03,4.20E-02,,,,
-2.35E-03,4.20E-02,,,,
-2.35E-03,4.20E-02,,,,
-2.34E-03,4.20E-02,,,,
-2.34E-03,4.00E-02,,,,
-2.34E-03,4.00E-02,,,,
-2.34E-03,4.00E-02,,,,
-2.34E-03,4.00E-02,,,,
-2.33E-03,3.80E-02,,,,
-2.33E-03,3.80E-02,,,,
-2.33E-03,4.00E-02,,,,
-2.33E-03,4.00E-02,,,,
-2.33E-03,3.80E-02,,,,
-2.32E-03,3.80E-02,,,,
-2.32E-03,3.40E-02,,,,
-2.32E-03,3.40E-02,,,,
-2.32E-03,3.40E-02,,,,
-2.32E-03,3.40E-02,,,,
-2.31E-03,3.40E-02,,,,
-2.31E-03,3.40E-02,,,,
-2.31E-03,3.40E-02,,,,
-2.31E-03,3.40E-02,,,,
-2.31E-03,3.20E-02,,,,
-2.30E-03,3.20E-02,,,,
-2.30E-03,3.20E-02,,,,
-2.30E-03,3.20E-02,,,,
-2.30E-03,3.20E-02,,,,
-2.30E-03,3.20E-02,,,,
-2.29E-03,3.00E-02,,,,
-2.29E-03,3.00E-02,,,,
-2.29E-03,3.00E-02,,,,
-2.29E-03,3.00E-02,,,,
-2.29E-03,2.60E-02,,,,
-2.28E-03,2.60E-02,,,,
-2.28E-03,2.80E-02,,,,
-2.28E-03,2.80E-02,,,,
-2.28E-03,2.60E-02,,,,
-2.28E-03,2.60E-02,,,,
-2.27E-03,2.80E-02,,,,
-2.27E-03,2.80E-02,,,,
-2.27E-03,2.40E-02,,,,
-2.27E-03,2.40E-02,,,,
-2.27E-03,2.60E-02,,,,
-2.26E-03,2.60E-02,,,,
-2.26E-03,2.40E-02,,,,
-2.26E-03,2.40E-02,,,,
-2.26E-03,2.20E-02,,,,
-2.26E-03,2.20E-02,,,,
-2.25E-03,2.20E-02,,,,
-2.25E-03,2.20E-02,,,,
-2.25E-03,2.00E-02,,,,
-2.25E-03,2.00E-02,,,,
