New Data/Calibration/A0030CH2.CSV

col 1,col 2,,,,,
0.00E+00,0.00E+00,,,,Memory Length,4000
2.00E-06,0.00E+00,,,,Trigger Level,1.80E+01
4.00E-06,0.00E+00,,,,Source,CH2
6.00E-06,0.00E+00,,,,Probe,1.0X
8.00E-06,0.00E+00,,,,Vertical Units,V
1.00E-05,0.00E+00,,,,Vertical Scale,1.00E+00
1.20E-05,0.00E+00,,,,Vertical Position,-3.12E+00
1.40E-05,0.00E+00,,,,Horizontal Units,S
1.60E-05,0.00E+00,,,,Horizontal Scale,5.00E-04
1.80E-05,4.00E-02,,,,Horizontal Position,4.00E-03
2.00E-05,4.00E-02,,,,Horizontal Mode,Main
2.20E-05,0.00E+00,,,,Sampling Period,2.00E-06
2.40E-05,0.00E+00,,,,Firmware,V1.14
2.60E-05,0.00E+00,,,,Time, 
2.80E-05,0.00E+00,,,,Mode,Detail
3.00E-05,-4.00E-02,,,,Waveform Data,
3.20E-05,-4.00E-02,,,,,
3.40E-05,0.00E+00,,,,,
3.60E-05,0.00E+00,,,,,
3.80E-05,0.00E+00,,,,,
4.00E-05,0.00E+00,,,,,
4.20E-05,0.00E+00,,,,,
4.40E-05,0.00E+00,,,,,
4.60E-05,0.00E+00,,,,,
4.80E-05,0.00E+00,,,,,
5.00E-05,0.00E+00,,,,,
5.20E-05,0.00E+00,,,,,
5.40E-05,0.00E+00,,,,,
5.60E-05,0.00E+00,,,,,
5.80E-05,4.00E-02,,,,,
6.00E-05,4.00E-02,,,,,
6.20E-05,4.00E-02,,,,,
6.40E-05,4.00E-02,,,,,
6.60E-05,0.00E+00,,,,,
6.80E-05,0.00E+00,,,,,
7.00E-05,0.00E+00,,,,,
7.20E-05,0.00E+00,,,,,
7.40E-05,0.00E+00,,,,,
7.60E-05,0.00E+00,,,,,
7.80E-05,0.00E+00,,,,,
8.00E-05,0.00E+00,,,,,
8.20E-05,0.00E+00,,,,,
8.40E-05,0.00E+00,,,,,
8.60E-05,-4.00E-02,,,,,
8.80E-05,-4.00E-02,,,,,
9.00E-05,0.00E+00,,,,,
9.20E-05,0.00E+00,,,,,
9.40E-05,0.00E+00,,,,,
9.60E-05,0.00E+00,,,,,
9.80E-05,0.00E+00,,,,,
1.00E-04,0.00E+00,,,,,
1.02E-04,0.00E+00,,,,,
1.04E-04,0.00E+00,,,,,
1.06E-04,0.00E+00,,,,,
1.08E-04,0.00E+00,,,,,
1.10E-04,0.00E+00,,,,,
1.12E-04,0.00E+00,,,,,
1.14E-04,0.00E+00,,,,,
1.16E-04,0.00E+00,,,,,
1.18E-04,0.00E+00,,,,,
1.20E-04,0.00E+00,,,,,
1.22E-04,0.00E+00,,,,,
1.24E-04,0.00E+00,,,,,
1.26E-04,0.00E+00,,,,,
1.28E-04,0.00E+00,,,,,
1.30E-04,0.00E+00,,,,,
1.32E-04,0.00E+00,,,,,
1.34E-04,0.00E+00,,,,,
1.36E-04,0.00E+00,,,,,
1.38E-04,0.00E+00,,,,,
1.40E-04,0.00E+00,,,,,
1.42E-04,0.00E+00,,,,,
1.44E-04,0.00E+00,,,,,
1.46E-04,-4.00E-02,,,,,
1.48E-04,-4.00E-02,,,,,
1.50E-04,0.00E+00,,,,,
1.52E-04,0.00E+00,,,,,
1.54E-04,0.00E+00,,,,,
1.56E-04,0.00E+00,,,,,
1.58E-04,-4.00E-02,,,,,
1.60E-04,-4.00E-02,,,,,
1.62E-04,0.00E+00,,,,,
1.64E-04,0.00E+00,,,,,
1.66E-04,0.00E+00,,,,,
1.68E-04,0.00E+00,,,,,
1.70E-04,0.00E+00,,,,,
1.72E-04,0.00E+00,,,,,
1.74E-04,4.00E-02,,,,,
1.76E-04,4.00E-02,,,,,
1.78E-04,0.00E+00,,,,,
1.80E-04,0.00E+00,,,,,
1.82E-04,0.00E+00,,,,,
1.84E-04,0.00E+00,,,,,
1.86E-04,0.00E+00,,,,,
1.88E-04,0.00E+00,,,,,
1.90E-04,4.00E-02,,,,,
1.92E-04,4.00E-02,,,,,
1.94E-04,0.00E+00,,,,,
1.96E-04,0.00E+00,,,,,
1.98E-04,4.00E-02,,,,,
2.00E-04,4.00E-02,,,,,
2.02E-04,0.00E+00,,,,,
2.04E-04,0.00E+00,,,,,
2.06E-04,0.00E+00,,,,,
2.08E-04,0.00E+00,,,,,
2.10E-04,0.00E+00,,,,,
2.12E-04,0.00E+00,,,,,
2.14E-04,0.00E+00,,,,,
2.16E-04,0.00E+00,,,,,
2.18E-04,0.00E+00,,,,,
2.20E-04,0.00E+00,,,,,
2.22E-04,0.00E+00,,,,,
2.24E-04,0.00E+00,,,,,
2.26E-04,-4.00E-02,,,,,
2.28E-04,-4.00E-02,,,,,
2.30E-04,0.00E+00,,,,,
2.32E-04,0.00E+00,,,,,
2.34E-04,0.00E+00,,,,,
2.36E-04,0.00E+00,,,,,
2.38E-04,0.00E+00,,,,,
2.40E-04,0.00E+00,,,,,
2.42E-04,0.00E+00,,,,,
2.44E-04,0.00E+00,,,,,
2.46E-04,0.00E+00,,,,,
2.48E-04,0.00E+00,,,,,
2.50E-04,0.00E+00,,,,,
2.52E-04,0.00E+00,,,,,
2.54E-04,0.00E+00,,,,,
2.56E-04,0.00E+00,,,,,
2.58E-04,-4.00E-02,,,,,
2.60E-04,-4.00E-02,,,,,
2.62E-04,0.00E+00,,,,,
2.64E-04,0.00E+00,,,,,
2.66E-04,-4.00E-02,,,,,
2.68E-04,-4.00E-02,,,,,
2.70E-04,0.00E+00,,,,,
2.72E-04,0.00E+00,,,,,
2.74E-04,0.00E+00,,,,,
2.76E-04,0.00E+00,,,,,
2.78E-04,0.00E+00,,,,,
2.80E-04,0.00E+00,,,,,
2.82E-04,4.00E-02,,,,,
2.84E-04,4.00E-02,,,,,
2.86E-04,0.00E+00,,,,,
2.88E-04,0.00E+00,,,,,
2.90E-04,0.00E+00,,,,,
2.92E-04,0.00E+00,,,,,
2.94E-04,0.00E+00,,,,,
2.96E-04,0.00E+00,,,,,
2.98E-04,0.00E+00,,,,,
3.00E-04,0.00E+00,,,,,
3.02E-04,0.00E+00,,,,,
3.04E-04,0.00E+00,,,,,
3.06E-04,0.00E+00,,,,,
3.08E-04,0.00E+00,,,,,
3.10E-04,0.00E+00,,,,,
3.12E-04,0.00E+00,,,,,
3.14E-04,0.00E+00,,,,,
3.16E-04,0.00E+00,,,,,
3.18E-04,0.00E+00,,,,,
3.20E-04,0.00E+00,,,,,
3.22E-04,4.00E-02,,,,,
3.24E-04,4.00E-02,,,,,
3.26E-04,0.00E+00,,,,,
3.28E-04,0.00E+00,,,,,
3.30E-04,0.00E+00,,,,,
3.32E-04,0.00E+00,,,,,
3.34E-04,0.00E+00,,,,,
3.36E-04,0.00E+00,,,,,
3.38E-04,0.00E+00,,,,,
3.40E-04,0.00E+00,,,,,
3.42E-04,4.00E-02,,,,,
3.44E-04,4.00E-02,,,,,
3.46E-04,4.00E-02,,,,,
3.48E-04,4.00E-02,,,,,
3.50E-04,0.00E+00,,,,,
3.52E-04,0.00E+00,,,,,
3.54E-04,0.00E+00,,,,,
3.56E-04,0.00E+00,,,,,
3.58E-04,0.00E+00,,,,,
3.60E-04,0.00E+00,,,,,
3.62E-04,0.00E+00,,,,,
3.64E-04,0.00E+00,,,,,
3.66E-04,0.00E+00,,,,,
3.68E-04,0.00E+00,,,,,
3.70E-04,4.00E-02,,,,,
3.72E-04,4.00E-02,,,,,
3.74E-04,4.00E-02,,,,,
3.76E-04,4.00E-02,,,,,
3.78E-04,0.00E+00,,,,,
3.80E-04,0.00E+00,,,,,
3.82E-04,0.00E+00,,,,,
3.84E-04,0.00E+00,,,,,
3.86E-04,0.00E+00,,,,,
3.88E-04,0.00E+00,,,,,
3.90E-04,0.00E+00,,,,,
3.92E-04,0.00E+00,,,,,
3.94E-04,0.00E+00,,,,,
3.96E-04,0.00E+00,,,,,
3.98E-04,0.00E+00,,,,,
4.00E-04,0.00E+00,,,,,
4.02E-04,0.00E+00,,,,,
4.04E-04,0.00E+00,,,,,
4.06E-04,0.00E+00,,,,,
4.08E-04,0.00E+00,,,,,
4.10E-04,0.00E+00,,,,,
4.12E-04,0.00E+00,,,,,
4.14E-04,0.00E+00,,,,,
4.16E-04,0.00E+00,,,,,
4.18E-04,0.00E+00,,,,,
4.20E-04,0.00E+00,,,,,
4.22E-04,0.00E+00,,,,,
4.24E-04,0.00E+00,,,,,
4.26E-04,0.00E+00,,,,,
4.28E-04,0.00E+00,,,,,
4.30E-04,-4.00E-02,,,,,
4.32E-04,-4.00E-02,,,,,
4.34E-04,0.00E+00,,,,,
4.36E-04,0.00E+00,,,,,
4.38E-04,0.00E+00,,,,,
4.40E-04,0.00E+00,,,,,
4.42E-04,0.00E+00,,,,,
4.44E-04,0.00E+00,,,,,
4.46E-04,4.00E-02,,,,,
4.48E-04,4.00E-02,,,,,
4.50E-04,0.00E+00,,,,,
4.52E-04,0.00E+00,,,,,
4.54E-04,0.00E+00,,,,,
4.56E-04,0.00E+00,,,,,
4.58E-04,0.00E+00,,,,,
4.60E-04,0.00E+00,,,,,
4.62E-04,0.00E+00,,,,,
4.64E-04,0.00E+00,,,,,
4.66E-04,0.00E+00,,,,,
4.68E-04,0.00E+00,,,,,
4.70E-04,0.00E+00,,,,,
4.72E-04,0.00E+00,,,,,
4.74E-04,0.00E+00,,,,,
4.76E-04,0.00E+00,,,,,
4.78E-04,0.00E+00,,,,,
4.80E-04,0.00E+00,,,,,
4.82E-04,0.00E+00,,,,,
4.84E-04,0.00E+00,,,,,
4.86E-04,-4.00E-02,,,,,
4.88E-04,-4.00E-02,,,,,
4.90E-04,0.00E+00,,,,,
4.92E-04,0.00E+00,,,,,
4.94E-04,0.00E+00,,,,,
4.96E-04,0.00E+00,,,,,
4.98E-04,0.00E+00,,,,,
5.00E-04,0.00E+00,,,,,
5.02E-04,0.00E+00,,,,,
5.04E-04,0.00E+00,,,,,
5.06E-04,0.00E+00,,,,,
5.08E-04,0.00E+00,,,,,
5.10E-04,0.00E+00,,,,,
5.12E-04,0.00E+00,,,,,
5.14E-04,0.00E+00,,,,,
5.16E-04,0.00E+00,,,,,
5.18E-04,0.00E+00,,,,,
5.20E-04,0.00E+00,,,,,
5.22E-04,0.00E+00,,,,,
5.24E-04,0.00E+00,,,,,
5.26E-04,0.00E+00,,,,,
5.28E-04,0.00E+00,,,,,
5.30E-04,0.00E+00,,,,,
5.32E-04,0.00E+00,,,,,
5.34E-04,0.00E+00,,,,,
5.36E-04,0.00E+00,,,,,
5.38E-04,0.00E+00,,,,,
5.40E-04,0.00E+00,,,,,
5.42E-04,0.00E+00,,,,,
5.44E-04,0.00E+00,,,,,
5.46E-04,0.00E+00,,,,,
5.48E-04,0.00E+00,,,,,
5.50E-04,0.00E+00,,,,,
5.52E-04,0.00E+00,,,,,
5.54E-04,0.00E+00,,,,,
5.56E-04,0.00E+00,,,,,
5.58E-04,0.00E+00,,,,,
5.60E-04,0.00E+00,,,,,
5.62E-04,0.00E+00,,,,,
5.64E-04,0.00E+00,,,,,
5.66E-04,0.00E+00,,,,,
5.68E-04,0.00E+00,,,,,
5.70E-04,0.00E+00,,,,,
5.72E-04,0.00E+00,,,,,
5.74E-04,0.00E+00,,,,,
5.76E-04,0.00E+00,,,,,
5.78E-04,0.00E+00,,,,,
5.80E-04,0.00E+00,,,,,
5.82E-04,0.00E+00,,,,,
5.84E-04,0.00E+00,,,,,
5.86E-04,-4.00E-02,,,,,
5.88E-04,-4.00E-02,,,,,
5.90E-04,0.00E+00,,,,,
5.92E-04,0.00E+00,,,,,
5.94E-04,0.00E+00,,,,,
5.96E-04,0.00E+00,,,,,
5.98E-04,0.00E+00,,,,,
6.00E-04,0.00E+00,,,,,
6.02E-04,-4.00E-02,,,,,
6.04E-04,-4.00E-02,,,,,
6.06E-04,0.00E+00,,,,,
6.08E-04,0.00E+00,,,,,
6.10E-04,0.00E+00,,,,,
6.12E-04,0.00E+00,,,,,
6.14E-04,0.00E+00,,,,,
6.16E-04,0.00E+00,,,,,
6.18E-04,0.00E+00,,,,,
6.20E-04,0.00E+00,,,,,
6.22E-04,0.00E+00,,,,,
6.24E-04,0.00E+00,,,,,
6.26E-04,0.00E+00,,,,,
6.28E-04,0.00E+00,,,,,
6.30E-04,0.00E+00,,,,,
6.32E-04,0.00E+00,,,,,
6.34E-04,0.00E+00,,,,,
6.36E-04,0.00E+00,,,,,
6.38E-04,0.00E+00,,,,,
6.40E-04,0.00E+00,,,,,
6.42E-04,0.00E+00,,,,,
6.44E-04,0.00E+00,,,,,
6.46E-04,0.00E+00,,,,,
6.48E-04,0.00E+00,,,,,
6.50E-04,0.00E+00,,,,,
6.52E-04,0.00E+00,,,,,
6.54E-04,0.00E+00,,,,,
6.56E-04,0.00E+00,,,,,
6.58E-04,0.00E+00,,,,,
6.60E-04,0.00E+00,,,,,
6.62E-04,0.00E+00,,,,,
6.64E-04,0.00E+00,,,,,
6.66E-04,0.00E+00,,,,,
6.68E-04,0.00E+00,,,,,
6.70E-04,-4.00E-02,,,,,
6.72E-04,-4.00E-02,,,,,
6.74E-04,0.00E+00,,,,,
6.76E-04,0.00E+00,,,,,
6.78E-04,0.00E+00,,,,,
6.80E-04,0.00E+00,,,,,
6.82E-04,0.00E+00,,,,,
6.84E-04,0.00E+00,,,,,
6.86E-04,0.00E+00,,,,,
6.88E-04,0.00E+00,,,,,
6.90E-04,0.00E+00,,,,,
6.92E-04,0.00E+00,,,,,
6.94E-04,4.00E-02,,,,,
6.96E-04,4.00E-02,,,,,
6.98E-04,0.00E+00,,,,,
7.00E-04,0.00E+00,,,,,
7.02E-04,0.00E+00,,,,,
7.04E-04,0.00E+00,,,,,
7.06E-04,0.00E+00,,,,,
7.08E-04,0.00E+00,,,,,
7.10E-04,0.00E+00,,,,,
7.12E-04,0.00E+00,,,,,
7.14E-04,0.00E+00,,,,,
7.16E-04,0.00E+00,,,,,
7.18E-04,0.00E+00,,,,,
7.20E-04,0.00E+00,,,,,
7.22E-04,0.00E+00,,,,,
7.24E-04,0.00E+00,,,,,
7.26E-04,0.00E+00,,,,,
7.28E-04,0.00E+00,,,,,
7.30E-04,0.00E+00,,,,,
7.32E-04,0.00E+00,,,,,
7.34E-04,0.00E+00,,,,,
7.36E-04,0.00E+00,,,,,
7.38E-04,0.00E+00,,,,,
7.40E-04,0.00E+00,,,,,
7.42E-04,0.00E+00,,,,,
7.44E-04,0.00E+00,,,,,
7.46E-04,0.00E+00,,,,,
7.48E-04,0.00E+00,,,,,
7.50E-04,0.00E+00,,,,,
7.52E-04,0.00E+00,,,,,
7.54E-04,0.00E+00,,,,,
7.56E-04,0.00E+00,,,,,
7.58E-04,0.00E+00,,,,,
7.60E-04,0.00E+00,,,,,
7.62E-04,-4.00E-02,,,,,
7.64E-04,-4.00E-02,,,,,
7.66E-04,4.00E-02,,,,,
7.68E-04,4.00E-02,,,,,
7.70E-04,0.00E+00,,,,,
7.72E-04,0.00E+00,,,,,
7.74E-04,0.00E+00,,,,,
7.76E-04,0.00E+00,,,,,
7.78E-04,0.00E+00,,,,,
7.80E-04,0.00E+00,,,,,
7.82E-04,0.00E+00,,,,,
7.84E-04,0.00E+00,,,,,
7.86E-04,0.00E+00,,,,,
7.88E-04,0.00E+00,,,,,
7.90E-04,0.00E+00,,,,,
7.92E-04,0.00E+00,,,,,
7.94E-04,0.00E+00,,,,,
7.96E-04,0.00E+00,,,,,
7.98E-04,0.00E+00,,,,,
8.00E-04,0.00E+00,,,,,
8.02E-04,0.00E+00,,,,,
8.04E-04,0.00E+00,,,,,
8.06E-04,0.00E+00,,,,,
8.08E-04,0.00E+00,,,,,
8.10E-04,-4.00E-02,,,,,
8.12E-04,-4.00E-02,,,,,
8.14E-04,0.00E+00,,,,,
8.16E-04,0.00E+00,,,,,
8.18E-04,0.00E+00,,,,,
8.20E-04,0.00E+00,,,,,
8.22E-04,0.00E+00,,,,,
8.24E-04,0.00E+00,,,,,
8.26E-04,0.00E+00,,,,,
8.28E-04,0.00E+00,,,,,
8.30E-04,0.00E+00,,,,,
8.32E-04,0.00E+00,,,,,
8.34E-04,0.00E+00,,,,,
8.36E-04,0.00E+00,,,,,
8.38E-04,0.00E+00,,,,,
8.40E-04,0.00E+00,,,,,
8.42E-04,0.00E+00,,,,,
8.44E-04,0.00E+00,,,,,
8.46E-04,0.00E+00,,,,,
8.48E-04,0.00E+00,,,,,
8.50E-04,0.00E+00,,,,,
8.52E-04,0.00E+00,,,,,
8.54E-04,-4.00E-02,,,,,
8.56E-04,-4.00E-02,,,,,
8.58E-04,0.00E+00,,,,,
8.60E-04,0.00E+00,,,,,
8.62E-04,0.00E+00,,,,,
8.64E-04,0.00E+00,,,,,
8.66E-04,0.00E+00,,,,,
8.68E-04,0.00E+00,,,,,
8.70E-04,0.00E+00,,,,,
8.72E-04,0.00E+00,,,,,
8.74E-04,0.00E+00,,,,,
8.76E-04,0.00E+00,,,,,
8.78E-04,0.00E+00,,,,,
8.80E-04,0.00E+00,,,,,
8.82E-04,0.00E+00,,,,,
8.84E-04,0.00E+00,,,,,
8.86E-04,0.00E+00,,,,,
8.88E-04,0.00E+00,,,,,
8.90E-04,0.00E+00,,,,,
8.92E-04,0.00E+00,,,,,
8.94E-04,0.00E+00,,,,,
8.96E-04,0.00E+00,,,,,
8.98E-04,0.00E+00,,,,,
9.00E-04,0.00E+00,,,,,
9.02E-04,0.00E+00,,,,,
9.04E-04,0.00E+00,,,,,
9.06E-04,0.00E+00,,,,,
9.08E-04,0.00E+00,,,,,
9.10E-04,0.00E+00,,,,,
9.12E-04,0.00E+00,,,,,
9.14E-04,0.00E+00,,,,,
9.16E-04,0.00E+00,,,,,
9.18E-04,0.00E+00,,,,,
9.20E-04,0.00E+00,,,,,
9.22E-04,0.00E+00,,,,,
9.24E-04,0.00E+00,,,,,
9.26E-04,0.00E+00,,,,,
9.28E-04,0.00E+00,,,,,
9.30E-04,0.00E+00,,,,,
9.32E-04,0.00E+00,,,,,
9.34E-04,0.00E+00,,,,,
9.36E-04,0.00E+00,,,,,
9.38E-04,0.00E+00,,,,,
9.40E-04,0.00E+00,,,,,
9.42E-04,0.00E+00,,,,,
9.44E-04,0.00E+00,,,,,
9.46E-04,0.00E+00,,,,,
9.48E-04,0.00E+00,,,,,
9.50E-04,0.00E+00,,,,,
9.52E-04,0.00E+00,,,,,
9.54E-04,0.00E+00,,,,,
9.56E-04,0.00E+00,,,,,
9.58E-04,0.00E+00,,,,,
9.60E-04,0.00E+00,,,,,
9.62E-04,0.00E+00,,,,,
9.64E-04,0.00E+00,,,,,
9.66E-04,0.00E+00,,,,,
9.68E-04,0.00E+00,,,,,
9.70E-04,0.00E+00,,,,,
9.72E-04,0.00E+00,,,,,
9.74E-04,0.00E+00,,,,,
9.76E-04,0.00E+00,,,,,
9.78E-04,0.00E+00,,,,,
9.80E-04,0.00E+00,,,,,
9.82E-04,4.00E-02,,,,,
9.84E-04,4.00E-02,,,,,
9.86E-04,4.00E-02,,,,,
9.88E-04,4.00E-02,,,,,
9.90E-04,0.00E+00,,,,,
9.92E-04,0.00E+00,,,,,
9.94E-04,0.00E+00,,,,,
9.96E-04,0.00E+00,,,,,
9.98E-04,4.00E-02,,,,,
1.00E-03,4.00E-02,,,,,
1.00E-03,0.00E+00,,,,,
1.00E-03,0.00E+00,,,,,
1.01E-03,0.00E+00,,,,,
1.01E-03,0.00E+00,,,,,
1.01E-03,0.00E+00,,,,,
1.01E-03,0.00E+00,,,,,
1.01E-03,0.00E+00,,,,,
1.02E-03,0.00E+00,,,,,
1.02E-03,4.00E-02,,,,,
1.02E-03,4.00E-02,,,,,
1.02E-03,4.00E-02,,,,,
1.02E-03,4.00E-02,,,,,
1.03E-03,0.00E+00,,,,,
1.03E-03,0.00E+00,,,,,
1.03E-03,0.00E+00,,,,,
1.03E-03,0.00E+00,,,,,
1.03E-03,0.00E+00,,,,,
1.04E-03,0.00E+00,,,,,
1.04E-03,0.00E+00,,,,,
1.04E-03,0.00E+00,,,,,
1.04E-03,0.00E+00,,,,,
1.04E-03,0.00E+00,,,,,
1.05E-03,0.00E+00,,,,,
1.05E-03,0.00E+00,,,,,
1.05E-03,0.00E+00,,,,,
1.05E-03,0.00E+00,,,,,
1.05E-03,0.00E+00,,,,,
1.06E-03,0.00E+00,,,,,
1.06E-03,0.00E+00,,,,,
1.06E-03,0.00E+00,,,,,
1.06E-03,4.00E-02,,,,,
1.06E-03,4.00E-02,,,,,
1.07E-03,0.00E+00,,,,,
1.07E-03,0.00E+00,,,,,
1.07E-03,4.00E-02,,,,,
1.07E-03,4.00E-02,,,,,
1.07E-03,0.00E+00,,,,,
1.08E-03,0.00E+00,,,,,
1.08E-03,4.00E-02,,,,,
1.08E-03,4.00E-02,,,,,
1.08E-03,4.00E-02,,,,,
1.08E-03,4.00E-02,,,,,
1.09E-03,0.00E+00,,,,,
1.09E-03,0.00E+00,,,,,
1.09E-03,0.00E+00,,,,,
1.09E-03,0.00E+00,,,,,
1.09E-03,0.00E+00,,,,,
1.10E-03,0.00E+00,,,,,
1.10E-03,4.00E-02,,,,,
1.10E-03,4.00E-02,,,,,
1.10E-03,4.00E-02,,,,,
1.10E-03,4.00E-02,,,,,
1.11E-03,4.00E-02,,,,,
1.11E-03,4.00E-02,,,,,
1.11E-03,0.00E+00,,,,,
1.11E-03,0.00E+00,,,,,
1.11E-03,4.00E-02,,,,,
1.12E-03,4.00E-02,,,,,
1.12E-03,0.00E+00,,,,,
1.12E-03,0.00E+00,,,,,
1.12E-03,0.00E+00,,,,,
1.12E-03,0.00E+00,,,,,
1.13E-03,0.00E+00,,,,,
1.13E-03,0.00E+00,,,,,
1.13E-03,0.00E+00,,,,,
1.13E-03,0.00E+00,,,,,
1.13E-03,4.00E-02,,,,,
1.14E-03,4.00E-02,,,,,
1.14E-03,4.00E-02,,,,,
1.14E-03,4.00E-02,,,,,
1.14E-03,4.00E-02,,,,,
1.14E-03,4.00E-02,,,,,
1.15E-03,0.00E+00,,,,,
1.15E-03,0.00E+00,,,,,
1.15E-03,4.00E-02,,,,,
1.15E-03,4.00E-02,,,,,
1.15E-03,4.00E-02,,,,,
1.16E-03,4.00E-02,,,,,
1.16E-03,4.00E-02,,,,,
1.16E-03,4.00E-02,,,,,
1.16E-03,0.00E+00,,,,,
1.16E-03,0.00E+00,,,,,
1.17E-03,0.00E+00,,,,,
1.17E-03,0.00E+00,,,,,
1.17E-03,0.00E+00,,,,,
1.17E-03,0.00E+00,,,,,
1.17E-03,0.00E+00,,,,,
1.18E-03,0.00E+00,,,,,
1.18E-03,4.00E-02,,,,,
1.18E-03,4.00E-02,,,,,
1.18E-03,0.00E+00,,,,,
1.18E-03,0.00E+00,,,,,
1.19E-03,4.00E-02,,,,,
1.19E-03,4.00E-02,,,,,
1.19E-03,0.00E+00,,,,,
1.19E-03,0.00E+00,,,,,
1.19E-03,0.00E+00,,,,,
1.20E-03,0.00E+00,,,,,
1.20E-03,0.00E+00,,,,,
1.20E-03,0.00E+00,,,,,
1.20E-03,0.00E+00,,,,,
1.20E-03,0.00E+00,,,,,
1.21E-03,0.00E+00,,,,,
1.21E-03,0.00E+00,,,,,
1.21E-03,0.00E+00,,,,,
1.21E-03,0.00E+00,,,,,
1.21E-03,4.00E-02,,,,,
1.22E-03,4.00E-02,,,,,
1.22E-03,4.00E-02,,,,,
1.22E-03,4.00E-02,,,,,
1.22E-03,4.00E-02,,,,,
1.22E-03,4.00E-02,,,,,
1.23E-03,4.00E-02,,,,,
1.23E-03,4.00E-02,,,,,
1.23E-03,4.00E-02,,,,,
1.23E-03,4.00E-02,,,,,
1.23E-03,0.00E+00,,,,,
1.24E-03,0.00E+00,,,,,
1.24E-03,0.00E+00,,,,,
1.24E-03,0.00E+00,,,,,
1.24E-03,0.00E+00,,,,,
1.24E-03,0.00E+00,,,,,
1.25E-03,0.00E+00,,,,,
1.25E-03,0.00E+00,,,,,
1.25E-03,0.00E+00,,,,,
1.25E-03,0.00E+00,,,,,
1.25E-03,0.00E+00,,,,,
1.26E-03,0.00E+00,,,,,
1.26E-03,4.00E-02,,,,,
1.26E-03,4.00E-02,,,,,
1.26E-03,0.00E+00,,,,,
1.26E-03,0.00E+00,,,,,
1.27E-03,0.00E+00,,,,,
1.27E-03,0.00E+00,,,,,
1.27E-03,4.00E-02,,,,,
1.27E-03,4.00E-02,,,,,
1.27E-03,0.00E+00,,,,,
1.28E-03,0.00E+00,,,,,
1.28E-03,0.00E+00,,,,,
1.28E-03,0.00E+00,,,,,
1.28E-03,0.00E+00,,,,,
1.28E-03,0.00E+00,,,,,
1.29E-03,4.00E-02,,,,,
1.29E-03,4.00E-02,,,,,
1.29E-03,4.00E-02,,,,,
1.29E-03,4.00E-02,,,,,
1.29E-03,4.00E-02,,,,,
1.30E-03,4.00E-02,,,,,
1.30E-03,0.00E+00,,,,,
1.30E-03,0.00E+00,,,,,
1.30E-03,4.00E-02,,,,,
1.30E-03,4.00E-02,,,,,
1.31E-03,0.00E+00,,,,,
1.31E-03,0.00E+00,,,,,
1.31E-03,4.00E-02,,,,,
1.31E-03,4.00E-02,,,,,
1.31E-03,4.00E-02,,,,,
1.32E-03,4.00E-02,,,,,
1.32E-03,4.00E-02,,,,,
1.32E-03,4.00E-02,,,,,
1.32E-03,0.00E+00,,,,,
1.32E-03,0.00E+00,,,,,
1.33E-03,0.00E+00,,,,,
1.33E-03,0.00E+00,,,,,
1.33E-03,0.00E+00,,,,,
1.33E-03,0.00E+00,,,,,
1.33E-03,0.00E+00,,,,,
1.34E-03,0.00E+00,,,,,
1.34E-03,4.00E-02,,,,,
1.34E-03,4.00E-02,,,,,
1.34E-03,0.00E+00,,,,,
1.34E-03,0.00E+00,,,,,
1.35E-03,4.00E-02,,,,,
1.35E-03,4.00E-02,,,,,
1.35E-03,4.00E-02,,,,,
1.35E-03,4.00E-02,,,,,
1.35E-03,0.00E+00,,,,,
1.36E-03,0.00E+00,,,,,
1.36E-03,0.00E+00,,,,,
1.36E-03,0.00E+00,,,,,
1.36E-03,4.00E-02,,,,,
1.36E-03,4.00E-02,,,,,
1.37E-03,0.00E+00,,,,,
1.37E-03,0.00E+00,,,,,
1.37E-03,4.00E-02,,,,,
1.37E-03,4.00E-02,,,,,
1.37E-03,0.00E+00,,,,,
1.38E-03,0.00E+00,,,,,
1.38E-03,4.00E-02,,,,,
1.38E-03,4.00E-02,,,,,
1.38E-03,0.00E+00,,,,,
1.38E-03,0.00E+00,,,,,
1.39E-03,4.00E-02,,,,,
1.39E-03,4.00E-02,,,,,
1.39E-03,4.00E-02,,,,,
1.39E-03,4.00E-02,,,,,
1.39E-03,0.00E+00,,,,,
1.40E-03,0.00E+00,,,,,
1.40E-03,0.00E+00,,,,,
1.40E-03,0.00E+00,,,,,
1.40E-03,0.00E+00,,,,,
1.40E-03,0.00E+00,,,,,
1.41E-03,4.00E-02,,,,,
1.41E-03,4.00E-02,,,,,
1.41E-03,4.00E-02,,,,,
1.41E-03,4.00E-02,,,,,
1.41E-03,4.00E-02,,,,,
1.42E-03,4.00E-02,,,,,
1.42E-03,4.00E-02,,,,,
1.42E-03,4.00E-02,,,,,
1.42E-03,4.00E-02,,,,,
1.42E-03,4.00E-02,,,,,
1.43E-03,0.00E+00,,,,,
1.43E-03,0.00E+00,,,,,
1.43E-03,0.00E+00,,,,,
1.43E-03,0.00E+00,,,,,
1.43E-03,0.00E+00,,,,,
1.44E-03,0.00E+00,,,,,
1.44E-03,-4.00E-02,,,,,
1.44E-03,-4.00E-02,,,,,
1.44E-03,4.00E-02,,,,,
1.44E-03,4.00E-02,,,,,
1.45E-03,4.00E-02,,,,,
1.45E-03,4.00E-02,,,,,
1.45E-03,4.00E-02,,,,,
1.45E-03,4.00E-02,,,,,
1.45E-03,0.00E+00,,,,,
1.46E-03,0.00E+00,,,,,
1.46E-03,0.00E+00,,,,,
1.46E-03,0.00E+00,,,,,
1.46E-03,0.00E+00,,,,,
1.46E-03,0.00E+00,,,,,
1.47E-03,0.00E+00,,,,,
1.47E-03,0.00E+00,,,,,
1.47E-03,4.00E-02,,,,,
1.47E-03,4.00E-02,,,,,
1.47E-03,0.00E+00,,,,,
1.48E-03,0.00E+00,,,,,
1.48E-03,4.00E-02,,,,,
1.48E-03,4.00E-02,,,,,
1.48E-03,4.00E-02,,,,,
1.48E-03,4.00E-02,,,,,
1.49E-03,4.00E-02,,,,,
1.49E-03,4.00E-02,,,,,
1.49E-03,4.00E-02,,,,,
1.49E-03,4.00E-02,,,,,
1.49E-03,4.00E-02,,,,,
1.50E-03,4.00E-02,,,,,
1.50E-03,0.00E+00,,,,,
1.50E-03,0.00E+00,,,,,
1.50E-03,4.00E-02,,,,,
1.50E-03,4.00E-02,,,,,
1.51E-03,4.00E-02,,,,,
1.51E-03,4.00E-02,,,,,
1.51E-03,0.00E+00,,,,,
1.51E-03,0.00E+00,,,,,
1.51E-03,4.00E-02,,,,,
1.52E-03,4.00E-02,,,,,
1.52E-03,0.00E+00,,,,,
1.52E-03,0.00E+00,,,,,
1.52E-03,4.00E-02,,,,,
1.52E-03,4.00E-02,,,,,
1.53E-03,4.00E-02,,,,,
1.53E-03,4.00E-02,,,,,
1.53E-03,4.00E-02,,,,,
1.53E-03,4.00E-02,,,,,
1.53E-03,0.00E+00,,,,,
1.54E-03,0.00E+00,,,,,
1.54E-03,4.00E-02,,,,,
1.54E-03,4.00E-02,,,,,
1.54E-03,4.00E-02,,,,,
1.54E-03,4.00E-02,,,,,
1.55E-03,4.00E-02,,,,,
1.55E-03,4.00E-02,,,,,
1.55E-03,0.00E+00,,,,,
1.55E-03,0.00E+00,,,,,
1.55E-03,4.00E-02,,,,,
1.56E-03,4.00E-02,,,,,
1.56E-03,4.00E-02,,,,,
1.56E-03,4.00E-02,,,,,
1.56E-03,8.00E-02,,,,,
1.56E-03,8.00E-02,,,,,
1.57E-03,4.00E-02,,,,,
1.57E-03,4.00E-02,,,,,
1.57E-03,4.00E-02,,,,,
1.57E-03,4.00E-02,,,,,
1.57E-03,4.00E-02,,,,,
1.58E-03,4.00E-02,,,,,
1.58E-03,4.00E-02,,,,,
1.58E-03,4.00E-02,,,,,
1.58E-03,4.00E-02,,,,,
1.58E-03,4.00E-02,,,,,
1.59E-03,8.00E-02,,,,,
1.59E-03,8.00E-02,,,,,
1.59E-03,4.00E-02,,,,,
1.59E-03,4.00E-02,,,,,
1.59E-03,8.00E-02,,,,,
1.60E-03,8.00E-02,,,,,
1.60E-03,4.00E-02,,,,,
1.60E-03,4.00E-02,,,,,
1.60E-03,8.00E-02,,,,,
1.60E-03,8.00E-02,,,,,
1.61E-03,4.00E-02,,,,,
1.61E-03,4.00E-02,,,,,
1.61E-03,8.00E-02,,,,,
1.61E-03,8.00E-02,,,,,
1.61E-03,4.00E-02,,,,,
1.62E-03,4.00E-02,,,,,
1.62E-03,8.00E-02,,,,,
1.62E-03,8.00E-02,,,,,
1.62E-03,8.00E-02,,,,,
1.62E-03,8.00E-02,,,,,
1.63E-03,8.00E-02,,,,,
1.63E-03,8.00E-02,,,,,
1.63E-03,1.20E-01,,,,,
1.63E-03,1.20E-01,,,,,
1.63E-03,1.20E-01,,,,,
1.64E-03,1.20E-01,,,,,
1.64E-03,1.60E-01,,,,,
1.64E-03,1.60E-01,,,,,
1.64E-03,1.60E-01,,,,,
1.64E-03,1.60E-01,,,,,
1.65E-03,2.40E-01,,,,,
1.65E-03,2.40E-01,,,,,
1.65E-03,4.00E-01,,,,,
1.65E-03,4.00E-01,,,,,
1.65E-03,5.20E-01,,,,,
1.66E-03,5.20E-01,,,,,
1.66E-03,6.80E-01,,,,,
1.66E-03,6.80E-01,,,,,
1.66E-03,8.80E-01,,,,,
1.66E-03,8.80E-01,,,,,
1.67E-03,1.20E+00,,,,,
1.67E-03,1.20E+00,,,,,
1.67E-03,1.52E+00,,,,,
1.67E-03,1.52E+00,,,,,
1.67E-03,1.68E+00,,,,,
1.68E-03,2.12E+00,,,,,
1.68E-03,2.04E+00,,,,,
1.68E-03,2.60E+00,,,,,
1.68E-03,2.56E+00,,,,,
1.68E-03,3.16E+00,,,,,
1.69E-03,3.08E+00,,,,,
1.69E-03,3.68E+00,,,,,
1.69E-03,3.64E+00,,,,,
1.69E-03,4.16E+00,,,,,
1.69E-03,4.12E+00,,,,,
1.70E-03,4.80E+00,,,,,
1.70E-03,4.80E+00,,,,,
1.70E-03,4.80E+00,,,,,
1.70E-03,5.08E+00,,,,,
1.70E-03,5.56E+00,,,,,
1.71E-03,5.52E+00,,,,,
1.71E-03,6.32E+00,,,,,
